2017-03-08 13:37:53	須徴	[穿紫]	薄層還?>
2017-03-08 13:37:55	須徴	[五銅什]	革 せせ
2017-03-08 13:38:01	須徴	[穿紫]	革戚闘岨
2017-03-08 13:38:02	須徴	[五銅什]	球十戚苫 左戚獣倉 ?ぞぞ
2017-03-08 13:38:12	須徴	[穿紫]	戚暗食
2017-03-08 13:38:13	須徴	[穿紫]	球十戚苫
2017-03-08 13:38:15	須徴	[五銅什]	しし
2017-03-08 13:38:29	須徴	[穿紫]	薦亜 森穿拭 5幻据爽壱 拭郊苫 因苫 紫檎辞 竺帖搾 鎧檎辞 閤精 羨紗奄亜 赤嬢食
2017-03-08 13:38:31	須徴	[穿紫]	鷺窟羨紗奄
2017-03-08 13:38:38	須徴	[穿紫]	益杏稽 嬢薦 羨紗陥獣郊蚊辞 梅聖企採斗
2017-03-08 13:38:39	須徴	[穿紫]	左心嬢推
2017-03-08 13:38:47	須徴	[五銅什]	焼 せせ
2017-03-08 13:38:50	須徴	[五銅什]	益隈姥涯 
2017-03-08 13:38:51	須徴	[五銅什]	悦汽 
2017-03-08 13:38:52	須徴	[穿紫]	什倒舌搾但亀
2017-03-08 13:38:53	須徴	[穿紫]	神嫌蒸壱
2017-03-08 13:38:58	須徴	[五銅什]	戚雌廃暗 更 近眼辞推 ぞぞ
2017-03-08 13:39:05	須徴	[穿紫]	焼橿
2017-03-08 13:39:07	須徴	[五銅什]	益惟 襟澗惟 球十戚苫戚 照左戚澗暗昔汽 ぞぞ
2017-03-08 13:39:08	須徴	[穿紫]	薄層還羨紗奄稽
2017-03-08 13:39:10	須徴	[穿紫]	層杏稽梅聖企澗
2017-03-08 13:39:12	須徴	[穿紫]	狭澗汽
2017-03-08 13:39:13	須徴	[穿紫]	巷戟羨紗奄
2017-03-08 13:39:16	須徴	[五銅什]	原切食 ぞぞ
2017-03-08 13:39:19	須徴	[穿紫]	悦汽薦亜 魚稽 閤焼兜精益杏稽梅聖凶拭澗
2017-03-08 13:39:20	須徴	[穿紫]	照狭嬢推
2017-03-08 13:39:20	須徴	[五銅什]	羨紗奄 庚薦 食辞 ぞぞ
2017-03-08 13:39:23	須徴	[穿紫]	獣什奴五室走拭
2017-03-08 13:39:24	須徴	[穿紫]	益軒壱
2017-03-08 13:41:13	須徴	[五銅什]	焼 戚杏 蓄亜 照背鎌革 せせ
2017-03-08 13:41:19	須徴	[五銅什]	鞠赤澗匝 硝紹希艦 せせ
2017-03-08 13:41:23	須徴	[五銅什]	戚闇 榎号鞠推 ぞぞ
2017-03-08 13:41:25	須徴	[五銅什]	呪舛精
2017-03-08 13:42:51	須徴	[五銅什]	神酔暗 天婚闘澗 
2017-03-08 13:42:54	須徴	[五銅什]	戚耕走幻 陥献暗績?
2017-03-08 13:50:30	須徴	[穿紫]	焼益軒壱\
2017-03-08 13:50:33	須徴	[穿紫]	煽腰爽拭挫聖凶拭澗
2017-03-08 13:50:35	須徴	[五銅什]	しし
