2016-10-03 00:36:48	thsekaql123:[라이트발드]	실패	[268643630]+6오리하루콘 단검
2016-10-03 00:37:04	thsekaql123:[라이트발드]	성공	[268643632]+7오리하루콘 단검
2016-10-03 00:37:10	thsekaql123:[라이트발드]	성공	[268643633]+7오리하루콘 단검
2016-10-03 00:37:17	thsekaql123:[라이트발드]	성공	[268643637]+7오리하루콘 단검
2016-10-03 00:37:24	thsekaql123:[라이트발드]	성공	[268643634]+7오리하루콘 단검
2016-10-03 00:37:31	thsekaql123:[라이트발드]	성공	[268643635]+7오리하루콘 단검
2016-10-03 00:37:37	thsekaql123:[라이트발드]	성공	[268643636]+7오리하루콘 단검
2016-10-03 00:37:44	thsekaql123:[라이트발드]	성공	[268643641]+7오리하루콘 단검
2016-10-03 00:37:47	thsekaql123:[라이트발드]	실패	[268643632]+7오리하루콘 단검
2016-10-03 00:37:49	thsekaql123:[라이트발드]	성공	[268643633]+8오리하루콘 단검
2016-10-03 00:37:51	thsekaql123:[라이트발드]	실패	[268643637]+7오리하루콘 단검
2016-10-03 00:37:53	thsekaql123:[라이트발드]	실패	[268643634]+7오리하루콘 단검
2016-10-03 00:37:55	thsekaql123:[라이트발드]	실패	[268643635]+7오리하루콘 단검
2016-10-03 00:37:57	thsekaql123:[라이트발드]	실패	[268643636]+7오리하루콘 단검
2016-10-03 00:37:59	thsekaql123:[라이트발드]	성공	[268643641]+8오리하루콘 단검
2016-10-03 00:38:06	thsekaql123:[라이트발드]	실패	[268643640]+6오리하루콘 단검
2016-10-03 00:38:12	thsekaql123:[라이트발드]	성공	[268643639]+7오리하루콘 단검
2016-10-03 00:38:20	thsekaql123:[라이트발드]	성공	[268643638]+7오리하루콘 단검
2016-10-03 00:38:22	thsekaql123:[라이트발드]	실패	[268643639]+7오리하루콘 단검
2016-10-03 00:38:24	thsekaql123:[라이트발드]	실패	[268643638]+7오리하루콘 단검
2016-10-03 00:38:27	thsekaql123:[라이트발드]	성공	[268643641]+9오리하루콘 단검
2016-10-03 00:38:31	thsekaql123:[라이트발드]	실패	[268643633]+8오리하루콘 단검
2016-10-03 00:38:35	thsekaql123:[라이트발드]	성공	[268643378]+7메일 브레이커
2016-10-03 00:38:39	thsekaql123:[라이트발드]	실패	[268643378]+7메일 브레이커
2016-10-03 01:05:38	thsekaql123:[라이트발드]	성공	[268643913]+1스냅퍼의 용사 반지
2016-10-03 01:05:40	thsekaql123:[라이트발드]	실패	[268643915]스냅퍼의 용사 반지
2016-10-03 01:05:42	thsekaql123:[라이트발드]	성공	[268643917]+1스냅퍼의 용사 반지
2016-10-03 01:05:43	thsekaql123:[라이트발드]	실패	[268643919]스냅퍼의 용사 반지
2016-10-03 01:05:44	thsekaql123:[라이트발드]	성공	[268643921]+1스냅퍼의 용사 반지
2016-10-03 01:05:45	thsekaql123:[라이트발드]	실패	[268643923]스냅퍼의 용사 반지
2016-10-03 01:05:47	thsekaql123:[라이트발드]	성공	[268643925]+1스냅퍼의 용사 반지
2016-10-03 01:05:48	thsekaql123:[라이트발드]	실패	[268643927]스냅퍼의 용사 반지
2016-10-03 01:05:49	thsekaql123:[라이트발드]	실패	[268643929]스냅퍼의 용사 반지
2016-10-03 01:05:50	thsekaql123:[라이트발드]	성공	[268643931]+1스냅퍼의 용사 반지
2016-10-03 01:05:51	thsekaql123:[라이트발드]	실패	[268643931]+1스냅퍼의 용사 반지
2016-10-03 01:05:53	thsekaql123:[라이트발드]	실패	[268643925]+1스냅퍼의 용사 반지
2016-10-03 01:05:54	thsekaql123:[라이트발드]	실패	[268643913]+1스냅퍼의 용사 반지
2016-10-03 01:35:22	xotqj11:[손담비]	성공	[268700348]+1숨겨진 마족의 체인소드
2016-10-03 01:35:23	xotqj11:[손담비]	성공	[268700347]+1숨겨진 마족의 체인소드
2016-10-03 01:35:24	xotqj11:[손담비]	실패	[268700346]숨겨진 마족의 체인소드
2016-10-03 01:35:25	xotqj11:[손담비]	실패	[268700345]숨겨진 마족의 체인소드
2016-10-03 01:35:26	xotqj11:[손담비]	성공	[268700344]+1숨겨진 마족의 체인소드
2016-10-03 01:35:27	xotqj11:[손담비]	성공	[268700343]+1숨겨진 마족의 체인소드
2016-10-03 01:35:27	xotqj11:[손담비]	실패	[268700342]숨겨진 마족의 체인소드
2016-10-03 01:35:28	xotqj11:[손담비]	실패	[268700341]숨겨진 마족의 체인소드
2016-10-03 01:35:28	xotqj11:[손담비]	실패	[268700340]숨겨진 마족의 체인소드
2016-10-03 01:35:28	xotqj11:[손담비]	실패	[268700339]숨겨진 마족의 체인소드
2016-10-03 01:35:29	xotqj11:[손담비]	실패	[268700338]숨겨진 마족의 체인소드
2016-10-03 01:35:29	xotqj11:[손담비]	성공	[268700337]+1숨겨진 마족의 체인소드
2016-10-03 01:35:29	xotqj11:[손담비]	실패	[268700336]숨겨진 마족의 체인소드
2016-10-03 01:35:30	xotqj11:[손담비]	실패	[268700335]숨겨진 마족의 체인소드
2016-10-03 01:35:30	xotqj11:[손담비]	실패	[268700334]숨겨진 마족의 체인소드
2016-10-03 01:35:31	xotqj11:[손담비]	성공	[268700333]+1숨겨진 마족의 체인소드
2016-10-03 01:35:31	xotqj11:[손담비]	성공	[268700332]+1숨겨진 마족의 체인소드
2016-10-03 01:35:32	xotqj11:[손담비]	성공	[268700331]+1숨겨진 마족의 체인소드
2016-10-03 01:35:32	xotqj11:[손담비]	실패	[268700330]숨겨진 마족의 체인소드
2016-10-03 01:35:34	xotqj11:[손담비]	성공	[268700329]+1숨겨진 마족의 체인소드
2016-10-03 01:35:34	xotqj11:[손담비]	실패	[268700327]숨겨진 마족의 체인소드
2016-10-03 01:35:35	xotqj11:[손담비]	성공	[268700326]+1숨겨진 마족의 체인소드
2016-10-03 01:35:35	xotqj11:[손담비]	실패	[268700325]숨겨진 마족의 체인소드
2016-10-03 01:35:35	xotqj11:[손담비]	성공	[268700324]+1숨겨진 마족의 체인소드
2016-10-03 01:35:35	xotqj11:[손담비]	실패	[268700323]숨겨진 마족의 체인소드
2016-10-03 01:35:35	xotqj11:[손담비]	성공	[268700322]+1숨겨진 마족의 체인소드
2016-10-03 01:35:35	xotqj11:[손담비]	성공	[268700321]+1숨겨진 마족의 체인소드
2016-10-03 01:35:36	xotqj11:[손담비]	성공	[268700320]+1숨겨진 마족의 체인소드
2016-10-03 01:35:37	xotqj11:[손담비]	실패	[268700319]숨겨진 마족의 체인소드
2016-10-03 01:35:37	xotqj11:[손담비]	실패	[268700318]숨겨진 마족의 체인소드
2016-10-03 01:35:37	xotqj11:[손담비]	실패	[268700316]숨겨진 마족의 체인소드
2016-10-03 01:35:38	xotqj11:[손담비]	성공	[268700315]+1숨겨진 마족의 체인소드
2016-10-03 01:35:38	xotqj11:[손담비]	성공	[268700314]+1숨겨진 마족의 체인소드
2016-10-03 01:35:38	xotqj11:[손담비]	성공	[268700313]+1숨겨진 마족의 체인소드
2016-10-03 01:35:39	xotqj11:[손담비]	성공	[268700312]+1숨겨진 마족의 체인소드
2016-10-03 01:35:40	xotqj11:[손담비]	성공	[268700311]+1숨겨진 마족의 체인소드
2016-10-03 01:35:40	xotqj11:[손담비]	실패	[268700310]숨겨진 마족의 체인소드
2016-10-03 01:35:40	xotqj11:[손담비]	실패	[268700309]숨겨진 마족의 체인소드
2016-10-03 01:35:41	xotqj11:[손담비]	성공	[268700308]+1숨겨진 마족의 체인소드
2016-10-03 01:35:41	xotqj11:[손담비]	실패	[268700307]숨겨진 마족의 체인소드
2016-10-03 01:35:42	xotqj11:[손담비]	실패	[268700305]숨겨진 마족의 체인소드
2016-10-03 01:35:42	xotqj11:[손담비]	성공	[268700304]+1숨겨진 마족의 체인소드
2016-10-03 01:35:42	xotqj11:[손담비]	실패	[268700303]숨겨진 마족의 체인소드
2016-10-03 01:35:44	xotqj11:[손담비]	실패	[268700302]숨겨진 마족의 체인소드
2016-10-03 01:35:44	xotqj11:[손담비]	성공	[268700301]+1숨겨진 마족의 체인소드
2016-10-03 01:35:44	xotqj11:[손담비]	성공	[268700300]+1숨겨진 마족의 체인소드
2016-10-03 01:35:45	xotqj11:[손담비]	실패	[268700299]숨겨진 마족의 체인소드
2016-10-03 01:35:45	xotqj11:[손담비]	실패	[268700298]숨겨진 마족의 체인소드
2016-10-03 01:35:45	xotqj11:[손담비]	실패	[268700297]숨겨진 마족의 체인소드
2016-10-03 01:35:46	xotqj11:[손담비]	실패	[268700296]숨겨진 마족의 체인소드
2016-10-03 01:36:00	xotqj11:[손담비]	성공	[268700283]+1숨겨진 마족의 체인소드
2016-10-03 01:36:01	xotqj11:[손담비]	실패	[268700282]숨겨진 마족의 체인소드
2016-10-03 01:36:01	xotqj11:[손담비]	실패	[268700281]숨겨진 마족의 체인소드
2016-10-03 01:36:01	xotqj11:[손담비]	실패	[268700280]숨겨진 마족의 체인소드
2016-10-03 01:36:02	xotqj11:[손담비]	성공	[268700279]+1숨겨진 마족의 체인소드
2016-10-03 01:36:02	xotqj11:[손담비]	실패	[268700278]숨겨진 마족의 체인소드
2016-10-03 01:36:02	xotqj11:[손담비]	실패	[268700277]숨겨진 마족의 체인소드
2016-10-03 01:36:03	xotqj11:[손담비]	성공	[268700276]+1숨겨진 마족의 체인소드
2016-10-03 01:36:03	xotqj11:[손담비]	성공	[268700275]+1숨겨진 마족의 체인소드
2016-10-03 01:36:04	xotqj11:[손담비]	실패	[268700274]숨겨진 마족의 체인소드
2016-10-03 01:36:06	xotqj11:[손담비]	실패	[268700348]+1숨겨진 마족의 체인소드
2016-10-03 01:36:06	xotqj11:[손담비]	실패	[268700347]+1숨겨진 마족의 체인소드
2016-10-03 01:36:07	xotqj11:[손담비]	실패	[268700344]+1숨겨진 마족의 체인소드
2016-10-03 01:36:07	xotqj11:[손담비]	실패	[268700343]+1숨겨진 마족의 체인소드
2016-10-03 01:36:08	xotqj11:[손담비]	실패	[268700337]+1숨겨진 마족의 체인소드
2016-10-03 01:36:08	xotqj11:[손담비]	실패	[268700333]+1숨겨진 마족의 체인소드
2016-10-03 01:36:09	xotqj11:[손담비]	실패	[268700331]+1숨겨진 마족의 체인소드
2016-10-03 01:36:09	xotqj11:[손담비]	실패	[268700332]+1숨겨진 마족의 체인소드
2016-10-03 01:36:10	xotqj11:[손담비]	성공	[268700329]+2숨겨진 마족의 체인소드
2016-10-03 01:36:11	xotqj11:[손담비]	성공	[268700326]+2숨겨진 마족의 체인소드
2016-10-03 01:36:11	xotqj11:[손담비]	실패	[268700322]+1숨겨진 마족의 체인소드
2016-10-03 01:36:12	xotqj11:[손담비]	성공	[268700324]+2숨겨진 마족의 체인소드
2016-10-03 01:36:13	xotqj11:[손담비]	실패	[268700321]+1숨겨진 마족의 체인소드
2016-10-03 01:36:13	xotqj11:[손담비]	실패	[268700320]+1숨겨진 마족의 체인소드
2016-10-03 01:36:15	xotqj11:[손담비]	성공	[268700315]+2숨겨진 마족의 체인소드
2016-10-03 01:36:15	xotqj11:[손담비]	실패	[268700314]+1숨겨진 마족의 체인소드
2016-10-03 01:36:15	xotqj11:[손담비]	성공	[268700313]+2숨겨진 마족의 체인소드
2016-10-03 01:36:16	xotqj11:[손담비]	실패	[268700312]+1숨겨진 마족의 체인소드
2016-10-03 01:36:16	xotqj11:[손담비]	실패	[268700308]+1숨겨진 마족의 체인소드
2016-10-03 01:36:18	xotqj11:[손담비]	실패	[268700304]+1숨겨진 마족의 체인소드
2016-10-03 01:36:19	xotqj11:[손담비]	성공	[268700311]+2숨겨진 마족의 체인소드
2016-10-03 01:36:19	xotqj11:[손담비]	실패	[268700301]+1숨겨진 마족의 체인소드
2016-10-03 01:36:20	xotqj11:[손담비]	실패	[268700300]+1숨겨진 마족의 체인소드
2016-10-03 01:36:21	xotqj11:[손담비]	실패	[268700283]+1숨겨진 마족의 체인소드
2016-10-03 01:36:21	xotqj11:[손담비]	실패	[268700279]+1숨겨진 마족의 체인소드
2016-10-03 01:36:21	xotqj11:[손담비]	실패	[268700276]+1숨겨진 마족의 체인소드
2016-10-03 01:36:22	xotqj11:[손담비]	성공	[268700275]+2숨겨진 마족의 체인소드
2016-10-03 01:36:23	xotqj11:[손담비]	실패	[268700329]+2숨겨진 마족의 체인소드
2016-10-03 01:36:23	xotqj11:[손담비]	실패	[268700326]+2숨겨진 마족의 체인소드
2016-10-03 01:36:24	xotqj11:[손담비]	실패	[268700324]+2숨겨진 마족의 체인소드
2016-10-03 01:36:24	xotqj11:[손담비]	성공	[268700315]+3숨겨진 마족의 체인소드
2016-10-03 01:36:25	xotqj11:[손담비]	실패	[268700313]+2숨겨진 마족의 체인소드
2016-10-03 01:36:25	xotqj11:[손담비]	실패	[268700311]+2숨겨진 마족의 체인소드
2016-10-03 01:36:26	xotqj11:[손담비]	실패	[268700275]+2숨겨진 마족의 체인소드
2016-10-03 01:36:28	xotqj11:[손담비]	성공	[268700315]+4숨겨진 마족의 체인소드
2016-10-03 01:36:31	xotqj11:[손담비]	실패	[268700315]+4숨겨진 마족의 체인소드
2016-10-03 01:37:27	xotqj11:[손담비]	성공	[268700383]+7오리하루콘 단검
2016-10-03 01:37:28	xotqj11:[손담비]	성공	[268700382]+7오리하루콘 단검
2016-10-03 01:37:29	xotqj11:[손담비]	성공	[268700381]+7오리하루콘 단검
2016-10-03 01:37:29	xotqj11:[손담비]	성공	[268700380]+7오리하루콘 단검
2016-10-03 01:37:30	xotqj11:[손담비]	실패	[268700379]+6오리하루콘 단검
2016-10-03 01:37:31	xotqj11:[손담비]	실패	[268700378]+6오리하루콘 단검
2016-10-03 01:37:31	xotqj11:[손담비]	실패	[268700377]+6오리하루콘 단검
2016-10-03 01:37:32	xotqj11:[손담비]	성공	[268700376]+7오리하루콘 단검
2016-10-03 01:37:32	xotqj11:[손담비]	성공	[268700375]+7오리하루콘 단검
2016-10-03 01:37:32	xotqj11:[손담비]	실패	[268700374]+6오리하루콘 단검
2016-10-03 01:37:39	xotqj11:[손담비]	실패	[268700383]+7오리하루콘 단검
2016-10-03 01:37:39	xotqj11:[손담비]	실패	[268700382]+7오리하루콘 단검
2016-10-03 01:37:40	xotqj11:[손담비]	실패	[268700381]+7오리하루콘 단검
2016-10-03 01:37:40	xotqj11:[손담비]	성공	[268700380]+8오리하루콘 단검
2016-10-03 01:37:41	xotqj11:[손담비]	실패	[268700376]+7오리하루콘 단검
2016-10-03 01:37:42	xotqj11:[손담비]	실패	[268700375]+7오리하루콘 단검
2016-10-03 01:37:44	xotqj11:[손담비]	실패	[268700380]+8오리하루콘 단검
2016-10-03 01:40:19	shs544:[낭만]	실패	[268700390]숨겨진 마족의 도끼
2016-10-03 01:40:30	thsekaql123:[라이트발드]	성공	[268700410]+7테베 오시리스의 양손검
2016-10-03 01:40:36	thsekaql123:[라이트발드]	실패	[268700411]+6테베 오시리스의 양손검
2016-10-03 01:40:41	thsekaql123:[라이트발드]	실패	[268700412]+6테베 오시리스의 양손검
2016-10-03 01:40:47	thsekaql123:[라이트발드]	성공	[268700413]+7테베 오시리스의 양손검
2016-10-03 01:40:50	shs544:[낭만]	성공	[268700392]+7혈풍의 도끼
2016-10-03 01:40:50	shs544:[낭만]	성공	[268700395]+7혈풍의 도끼
2016-10-03 01:40:51	shs544:[낭만]	실패	[268700397]+6혈풍의 도끼
2016-10-03 01:40:52	shs544:[낭만]	실패	[268700418]+6혈풍의 도끼
2016-10-03 01:40:54	thsekaql123:[라이트발드]	성공	[268700414]+7테베 오시리스의 양손검
2016-10-03 01:40:54	shs544:[낭만]	성공	[268700389]+7혈풍의 도끼
2016-10-03 01:40:56	shs544:[낭만]	성공	[268700391]+7혈풍의 도끼
2016-10-03 01:40:57	shs544:[낭만]	성공	[268700395]+8혈풍의 도끼
2016-10-03 01:40:58	shs544:[낭만]	실패	[268700392]+7혈풍의 도끼
2016-10-03 01:41:00	shs544:[낭만]	성공	[268700389]+8혈풍의 도끼
2016-10-03 01:41:01	shs544:[낭만]	실패	[268700391]+7혈풍의 도끼
2016-10-03 01:41:02	shs544:[낭만]	실패	[268700389]+8혈풍의 도끼
2016-10-03 01:41:03	shs544:[낭만]	실패	[268700395]+8혈풍의 도끼
2016-10-03 01:41:17	thsekaql123:[라이트발드]	실패	[268700415]+6테베 오시리스의 양손검
2016-10-03 01:41:23	thsekaql123:[라이트발드]	실패	[268700416]+6테베 오시리스의 양손검
2016-10-03 01:41:28	thsekaql123:[라이트발드]	실패	[268700417]+6테베 오시리스의 양손검
2016-10-03 01:41:35	thsekaql123:[라이트발드]	성공	[268700408]+7테베 오시리스의 양손검
2016-10-03 01:41:41	thsekaql123:[라이트발드]	성공	[268700409]+7테베 오시리스의 양손검
2016-10-03 01:41:43	thsekaql123:[라이트발드]	실패	[268700409]+7테베 오시리스의 양손검
2016-10-03 01:41:45	thsekaql123:[라이트발드]	실패	[268700408]+7테베 오시리스의 양손검
2016-10-03 01:41:47	thsekaql123:[라이트발드]	성공	[268700414]+8테베 오시리스의 양손검
2016-10-03 01:41:48	thsekaql123:[라이트발드]	성공	[268700413]+8테베 오시리스의 양손검
2016-10-03 01:41:50	thsekaql123:[라이트발드]	성공	[268700410]+8테베 오시리스의 양손검
2016-10-03 01:42:11	shs544:[낭만]	성공	[268700434]+7혈풍의 도끼
2016-10-03 01:42:12	thsekaql123:[라이트발드]	실패	[268700414]+8테베 오시리스의 양손검
2016-10-03 01:42:14	thsekaql123:[라이트발드]	성공	[268700413]+9테베 오시리스의 양손검
2016-10-03 01:43:48	thsekaql123:[라이트발드]	실패	[268700410]+8테베 오시리스의 양손검
2016-10-03 01:51:30	shs544:[낭만]	성공	[268700430]+7혈풍의 도끼
2016-10-03 01:51:31	shs544:[낭만]	성공	[268700431]+7혈풍의 도끼
2016-10-03 01:51:32	shs544:[낭만]	실패	[268700433]+6혈풍의 도끼
2016-10-03 01:51:34	shs544:[낭만]	실패	[268700436]+6혈풍의 도끼
2016-10-03 01:51:36	shs544:[낭만]	성공	[268700437]+7혈풍의 도끼
2016-10-03 01:51:37	shs544:[낭만]	성공	[268700450]+7혈풍의 도끼
2016-10-03 01:51:39	shs544:[낭만]	실패	[268700451]+6혈풍의 도끼
2016-10-03 01:51:40	shs544:[낭만]	성공	[268700452]+7혈풍의 도끼
2016-10-03 01:51:41	shs544:[낭만]	실패	[268700453]+6혈풍의 도끼
2016-10-03 01:51:42	shs544:[낭만]	성공	[268700455]+7혈풍의 도끼
2016-10-03 01:51:43	shs544:[낭만]	실패	[268700457]+6혈풍의 도끼
2016-10-03 01:51:44	shs544:[낭만]	성공	[268700459]+7혈풍의 도끼
2016-10-03 01:51:46	shs544:[낭만]	실패	[268700434]+7혈풍의 도끼
2016-10-03 01:51:47	shs544:[낭만]	실패	[268700430]+7혈풍의 도끼
2016-10-03 01:51:48	shs544:[낭만]	실패	[268700431]+7혈풍의 도끼
2016-10-03 01:51:48	shs544:[낭만]	실패	[268700437]+7혈풍의 도끼
2016-10-03 01:51:49	shs544:[낭만]	실패	[268700450]+7혈풍의 도끼
2016-10-03 01:51:51	shs544:[낭만]	실패	[268700452]+7혈풍의 도끼
2016-10-03 01:51:52	shs544:[낭만]	실패	[268700455]+7혈풍의 도끼
2016-10-03 01:51:53	shs544:[낭만]	성공	[268700459]+8혈풍의 도끼
2016-10-03 01:53:25	thsekaql123:[라이트발드]	실패	[268700594]+6오리하루콘 단검
2016-10-03 01:53:30	thsekaql123:[라이트발드]	성공	[268700595]+7오리하루콘 단검
2016-10-03 01:53:37	thsekaql123:[라이트발드]	성공	[268700596]+7오리하루콘 단검
2016-10-03 01:53:44	thsekaql123:[라이트발드]	실패	[268700597]+6오리하루콘 단검
2016-10-03 01:53:51	thsekaql123:[라이트발드]	성공	[268700598]+7오리하루콘 단검
2016-10-03 01:53:51	xotqj11:[메티스]	성공	[268700624]+7오리하루콘 단검
2016-10-03 01:53:57	xotqj11:[메티스]	성공	[268700623]+7오리하루콘 단검
2016-10-03 01:53:58	thsekaql123:[라이트발드]	실패	[268700599]+6오리하루콘 단검
2016-10-03 01:54:05	thsekaql123:[라이트발드]	성공	[268700600]+7오리하루콘 단검
2016-10-03 01:54:09	xotqj11:[메티스]	성공	[268700621]+7오리하루콘 단검
2016-10-03 01:54:12	thsekaql123:[라이트발드]	성공	[268700591]+7오리하루콘 단검
2016-10-03 01:54:19	thsekaql123:[라이트발드]	성공	[268700593]+7오리하루콘 단검
2016-10-03 01:54:27	shs544:[낭만]	실패	[268700581]+6혈풍의 도끼
2016-10-03 01:54:28	shs544:[낭만]	성공	[268700585]+7혈풍의 도끼
2016-10-03 01:54:29	thsekaql123:[라이트발드]	실패	[268700592]+6오리하루콘 단검
2016-10-03 01:54:29	shs544:[낭만]	성공	[268700587]+7혈풍의 도끼
2016-10-03 01:54:30	shs544:[낭만]	실패	[268700588]+6혈풍의 도끼
2016-10-03 01:54:31	shs544:[낭만]	실패	[268700589]+6혈풍의 도끼
2016-10-03 01:54:31	shs544:[낭만]	실패	[268700590]+6혈풍의 도끼
2016-10-03 01:54:32	shs544:[낭만]	성공	[268700601]+7혈풍의 도끼
2016-10-03 01:54:33	shs544:[낭만]	실패	[268700602]+6혈풍의 도끼
2016-10-03 01:54:34	shs544:[낭만]	성공	[268700603]+7혈풍의 도끼
2016-10-03 01:54:35	shs544:[낭만]	실패	[268700604]+6혈풍의 도끼
2016-10-03 01:54:36	shs544:[낭만]	실패	[268700605]+6혈풍의 도끼
2016-10-03 01:54:37	shs544:[낭만]	성공	[268700606]+7혈풍의 도끼
2016-10-03 01:54:44	xotqj11:[메티스]	실패	[268700608]+6오리하루콘 단검
2016-10-03 01:54:45	xotqj11:[메티스]	실패	[268700609]+6오리하루콘 단검
2016-10-03 01:54:48	thsekaql123:[라이트발드]	실패	[268700591]+7오리하루콘 단검
2016-10-03 01:54:48	shs544:[낭만]	실패	[268700606]+7혈풍의 도끼
2016-10-03 01:54:49	xotqj11:[메티스]	실패	[268700614]+6오리하루콘 단검
2016-10-03 01:54:49	shs544:[낭만]	실패	[268700585]+7혈풍의 도끼
2016-10-03 01:54:49	thsekaql123:[라이트발드]	실패	[268700593]+7오리하루콘 단검
2016-10-03 01:54:49	shs544:[낭만]	실패	[268700587]+7혈풍의 도끼
2016-10-03 01:54:50	shs544:[낭만]	실패	[268700601]+7혈풍의 도끼
2016-10-03 01:54:50	thsekaql123:[라이트발드]	실패	[268700596]+7오리하루콘 단검
2016-10-03 01:54:51	shs544:[낭만]	실패	[268700603]+7혈풍의 도끼
2016-10-03 01:54:51	thsekaql123:[라이트발드]	실패	[268700595]+7오리하루콘 단검
2016-10-03 01:54:53	thsekaql123:[라이트발드]	실패	[268700598]+7오리하루콘 단검
2016-10-03 01:54:53	xotqj11:[메티스]	성공	[268700627]+7오리하루콘 단검
2016-10-03 01:54:53	xotqj11:[메티스]	실패	[268700626]+6오리하루콘 단검
2016-10-03 01:54:54	xotqj11:[메티스]	실패	[268700625]+6오리하루콘 단검
2016-10-03 01:54:54	thsekaql123:[라이트발드]	실패	[268700600]+7오리하루콘 단검
2016-10-03 01:54:56	shs544:[낭만]	실패	[268700459]+8혈풍의 도끼
2016-10-03 01:54:56	xotqj11:[메티스]	실패	[268700622]+6오리하루콘 단검
2016-10-03 01:54:57	xotqj11:[메티스]	실패	[268700621]+7오리하루콘 단검
2016-10-03 01:54:58	xotqj11:[메티스]	실패	[268700620]+6오리하루콘 단검
2016-10-03 01:54:59	xotqj11:[메티스]	성공	[268700619]+7오리하루콘 단검
2016-10-03 01:54:59	xotqj11:[메티스]	실패	[268700618]+6오리하루콘 단검
2016-10-03 01:55:00	xotqj11:[메티스]	실패	[268700617]+6오리하루콘 단검
2016-10-03 01:55:01	xotqj11:[메티스]	실패	[268700616]+6오리하루콘 단검
2016-10-03 01:55:02	xotqj11:[메티스]	성공	[268700615]+7오리하루콘 단검
2016-10-03 01:55:03	xotqj11:[메티스]	실패	[268700613]+6오리하루콘 단검
2016-10-03 01:55:03	xotqj11:[메티스]	성공	[268700612]+7오리하루콘 단검
2016-10-03 01:55:04	xotqj11:[메티스]	실패	[268700611]+6오리하루콘 단검
2016-10-03 01:55:05	xotqj11:[메티스]	실패	[268700610]+6오리하루콘 단검
2016-10-03 01:55:22	xotqj11:[메티스]	실패	[268700627]+7오리하루콘 단검
2016-10-03 01:55:22	xotqj11:[메티스]	실패	[268700623]+7오리하루콘 단검
2016-10-03 01:55:23	xotqj11:[메티스]	실패	[268700624]+7오리하루콘 단검
2016-10-03 01:55:24	xotqj11:[메티스]	실패	[268700619]+7오리하루콘 단검
2016-10-03 01:55:24	xotqj11:[메티스]	성공	[268700615]+8오리하루콘 단검
2016-10-03 01:55:25	xotqj11:[메티스]	실패	[268700612]+7오리하루콘 단검
2016-10-03 01:55:27	thsekaql123:[라이트발드]	성공	[268700638]+7오리하루콘 단검
2016-10-03 01:55:28	xotqj11:[메티스]	실패	[268700615]+8오리하루콘 단검
2016-10-03 01:55:34	thsekaql123:[라이트발드]	실패	[268700639]+6오리하루콘 단검
2016-10-03 01:55:39	thsekaql123:[라이트발드]	성공	[268700640]+7오리하루콘 단검
2016-10-03 01:55:46	thsekaql123:[라이트발드]	실패	[268700641]+6오리하루콘 단검
2016-10-03 01:55:52	thsekaql123:[라이트발드]	실패	[268700642]+6오리하루콘 단검
2016-10-03 01:56:00	thsekaql123:[라이트발드]	실패	[268700643]+6오리하루콘 단검
2016-10-03 01:56:06	xotqj11:[메티스]	실패	[268700686]+7오리하루콘 단검
2016-10-03 01:56:06	thsekaql123:[라이트발드]	실패	[268700644]+6오리하루콘 단검
2016-10-03 01:56:07	xotqj11:[메티스]	실패	[268700685]+7오리하루콘 단검
2016-10-03 01:56:07	xotqj11:[메티스]	실패	[268700684]+7오리하루콘 단검
2016-10-03 01:56:08	xotqj11:[메티스]	실패	[268700683]+7오리하루콘 단검
2016-10-03 01:56:08	xotqj11:[메티스]	실패	[268700682]+7오리하루콘 단검
2016-10-03 01:56:09	xotqj11:[메티스]	실패	[268700681]+7오리하루콘 단검
2016-10-03 01:56:09	xotqj11:[메티스]	실패	[268700680]+7오리하루콘 단검
2016-10-03 01:56:10	xotqj11:[메티스]	성공	[268700679]+8오리하루콘 단검
2016-10-03 01:56:10	xotqj11:[메티스]	실패	[268700678]+7오리하루콘 단검
2016-10-03 01:56:11	xotqj11:[메티스]	실패	[268700677]+7오리하루콘 단검
2016-10-03 01:56:11	xotqj11:[메티스]	성공	[268700676]+8오리하루콘 단검
2016-10-03 01:56:13	thsekaql123:[라이트발드]	성공	[268700645]+7오리하루콘 단검
2016-10-03 01:56:14	xotqj11:[메티스]	실패	[268700675]+7오리하루콘 단검
2016-10-03 01:56:15	xotqj11:[메티스]	실패	[268700674]+7오리하루콘 단검
2016-10-03 01:56:15	xotqj11:[메티스]	실패	[268700673]+7오리하루콘 단검
2016-10-03 01:56:16	xotqj11:[메티스]	실패	[268700672]+7오리하루콘 단검
2016-10-03 01:56:16	xotqj11:[메티스]	성공	[268700671]+8오리하루콘 단검
2016-10-03 01:56:17	xotqj11:[메티스]	실패	[268700670]+7오리하루콘 단검
2016-10-03 01:56:17	xotqj11:[메티스]	실패	[268700669]+7오리하루콘 단검
2016-10-03 01:56:18	xotqj11:[메티스]	실패	[268700668]+7오리하루콘 단검
2016-10-03 01:56:18	xotqj11:[메티스]	실패	[268700667]+7오리하루콘 단검
2016-10-03 01:56:20	thsekaql123:[라이트발드]	성공	[268700646]+7오리하루콘 단검
2016-10-03 01:56:23	xotqj11:[메티스]	실패	[268700679]+8오리하루콘 단검
2016-10-03 01:56:24	xotqj11:[메티스]	실패	[268700676]+8오리하루콘 단검
2016-10-03 01:56:25	xotqj11:[메티스]	실패	[268700671]+8오리하루콘 단검
2016-10-03 01:56:28	thsekaql123:[라이트발드]	실패	[268700647]+6오리하루콘 단검
2016-10-03 01:56:35	thsekaql123:[라이트발드]	실패	[268700648]+6오리하루콘 단검
2016-10-03 01:56:46	thsekaql123:[라이트발드]	성공	[268700650]+7오리하루콘 단검
2016-10-03 01:56:53	thsekaql123:[라이트발드]	성공	[268700651]+7오리하루콘 단검
2016-10-03 01:57:01	thsekaql123:[라이트발드]	실패	[268700652]+6오리하루콘 단검
2016-10-03 01:57:07	thsekaql123:[라이트발드]	성공	[268700653]+7오리하루콘 단검
2016-10-03 01:57:38	thsekaql123:[라이트발드]	실패	[268700637]+6오리하루콘 단검
2016-10-03 01:57:46	thsekaql123:[라이트발드]	실패	[268700649]+6오리하루콘 단검
2016-10-03 01:57:55	thsekaql123:[라이트발드]	성공	[268700655]+7오리하루콘 단검
2016-10-03 01:58:03	thsekaql123:[라이트발드]	실패	[268700656]+6오리하루콘 단검
2016-10-03 01:58:11	thsekaql123:[라이트발드]	성공	[268700654]+7오리하루콘 단검
2016-10-03 01:58:40	thsekaql123:[라이트발드]	실패	[268700654]+7오리하루콘 단검
2016-10-03 01:58:42	thsekaql123:[라이트발드]	실패	[268700655]+7오리하루콘 단검
2016-10-03 01:58:43	thsekaql123:[라이트발드]	실패	[268700653]+7오리하루콘 단검
2016-10-03 01:58:45	thsekaql123:[라이트발드]	실패	[268700651]+7오리하루콘 단검
2016-10-03 01:58:46	thsekaql123:[라이트발드]	실패	[268700650]+7오리하루콘 단검
2016-10-03 01:58:47	thsekaql123:[라이트발드]	실패	[268700646]+7오리하루콘 단검
2016-10-03 01:58:49	thsekaql123:[라이트발드]	성공	[268700645]+8오리하루콘 단검
2016-10-03 01:58:51	thsekaql123:[라이트발드]	실패	[268700640]+7오리하루콘 단검
2016-10-03 01:58:53	thsekaql123:[라이트발드]	실패	[268700638]+7오리하루콘 단검
2016-10-03 01:59:15	shs544:[낭만]	성공	[268700636]+7혈풍의 도끼
2016-10-03 01:59:17	shs544:[낭만]	성공	[268700657]+7혈풍의 도끼
2016-10-03 01:59:18	shs544:[낭만]	실패	[268700659]+6혈풍의 도끼
2016-10-03 01:59:18	shs544:[낭만]	실패	[268700660]+6혈풍의 도끼
2016-10-03 01:59:19	shs544:[낭만]	실패	[268700661]+6혈풍의 도끼
2016-10-03 01:59:20	shs544:[낭만]	실패	[268700662]+6혈풍의 도끼
2016-10-03 01:59:20	shs544:[낭만]	성공	[268700663]+7혈풍의 도끼
2016-10-03 01:59:21	shs544:[낭만]	실패	[268700664]+6혈풍의 도끼
2016-10-03 01:59:22	shs544:[낭만]	성공	[268700665]+7혈풍의 도끼
2016-10-03 01:59:23	shs544:[낭만]	실패	[268700666]+6혈풍의 도끼
2016-10-03 01:59:24	shs544:[낭만]	실패	[268700687]+6혈풍의 도끼
2016-10-03 01:59:25	shs544:[낭만]	성공	[268700688]+7혈풍의 도끼
2016-10-03 01:59:25	shs544:[낭만]	성공	[268700689]+7혈풍의 도끼
2016-10-03 01:59:26	shs544:[낭만]	실패	[268700711]+6혈풍의 도끼
2016-10-03 01:59:27	shs544:[낭만]	성공	[268700712]+7혈풍의 도끼
2016-10-03 01:59:28	shs544:[낭만]	성공	[268700713]+7혈풍의 도끼
2016-10-03 01:59:30	shs544:[낭만]	실패	[268700714]+6혈풍의 도끼
2016-10-03 01:59:30	shs544:[낭만]	성공	[268700715]+7혈풍의 도끼
2016-10-03 01:59:31	shs544:[낭만]	실패	[268700716]+6혈풍의 도끼
2016-10-03 01:59:32	shs544:[낭만]	실패	[268700717]+6혈풍의 도끼
2016-10-03 01:59:57	xotqj11:[메티스]	실패	[268700744]+8오리하루콘 단검
2016-10-03 01:59:57	xotqj11:[메티스]	실패	[268700743]+8오리하루콘 단검
2016-10-03 01:59:58	xotqj11:[메티스]	실패	[268700742]+8오리하루콘 단검
2016-10-03 01:59:58	xotqj11:[메티스]	실패	[268700741]+8오리하루콘 단검
2016-10-03 01:59:59	thsekaql123:[라이트발드]	성공	[268700691]+8오리하루콘 단검
2016-10-03 01:59:59	xotqj11:[메티스]	실패	[268700740]+8오리하루콘 단검
2016-10-03 02:00:00	xotqj11:[메티스]	실패	[268700739]+8오리하루콘 단검
2016-10-03 02:00:00	xotqj11:[메티스]	실패	[268700738]+8오리하루콘 단검
2016-10-03 02:00:00	xotqj11:[메티스]	실패	[268700737]+8오리하루콘 단검
2016-10-03 02:00:00	thsekaql123:[라이트발드]	실패	[268700692]+7오리하루콘 단검
2016-10-03 02:00:01	xotqj11:[메티스]	실패	[268700736]+8오리하루콘 단검
2016-10-03 02:00:01	xotqj11:[메티스]	실패	[268700735]+8오리하루콘 단검
2016-10-03 02:00:01	xotqj11:[메티스]	실패	[268700734]+8오리하루콘 단검
2016-10-03 02:00:02	thsekaql123:[라이트발드]	성공	[268700693]+8오리하루콘 단검
2016-10-03 02:00:02	xotqj11:[메티스]	실패	[268700733]+8오리하루콘 단검
2016-10-03 02:00:02	xotqj11:[메티스]	실패	[268700732]+8오리하루콘 단검
2016-10-03 02:00:03	xotqj11:[메티스]	실패	[268700731]+8오리하루콘 단검
2016-10-03 02:00:03	thsekaql123:[라이트발드]	실패	[268700694]+7오리하루콘 단검
2016-10-03 02:00:03	xotqj11:[메티스]	실패	[268700730]+8오리하루콘 단검
2016-10-03 02:00:03	xotqj11:[메티스]	실패	[268700729]+8오리하루콘 단검
2016-10-03 02:00:04	xotqj11:[메티스]	성공	[268700728]+9오리하루콘 단검
2016-10-03 02:00:04	xotqj11:[메티스]	실패	[268700727]+8오리하루콘 단검
2016-10-03 02:00:04	thsekaql123:[라이트발드]	실패	[268700695]+7오리하루콘 단검
2016-10-03 02:00:05	xotqj11:[메티스]	실패	[268700726]+8오리하루콘 단검
2016-10-03 02:00:05	xotqj11:[메티스]	실패	[268700725]+8오리하루콘 단검
2016-10-03 02:00:06	thsekaql123:[라이트발드]	실패	[268700696]+7오리하루콘 단검
2016-10-03 02:00:07	thsekaql123:[라이트발드]	실패	[268700697]+7오리하루콘 단검
2016-10-03 02:00:08	thsekaql123:[라이트발드]	실패	[268700698]+7오리하루콘 단검
2016-10-03 02:00:09	thsekaql123:[라이트발드]	실패	[268700699]+7오리하루콘 단검
2016-10-03 02:00:10	thsekaql123:[라이트발드]	실패	[268700700]+7오리하루콘 단검
2016-10-03 02:00:12	thsekaql123:[라이트발드]	성공	[268700701]+8오리하루콘 단검
2016-10-03 02:00:13	thsekaql123:[라이트발드]	실패	[268700702]+7오리하루콘 단검
2016-10-03 02:00:17	thsekaql123:[라이트발드]	성공	[268700703]+8오리하루콘 단검
2016-10-03 02:00:23	shs544:[낭만]	실패	[268700636]+7혈풍의 도끼
2016-10-03 02:00:24	shs544:[낭만]	실패	[268700657]+7혈풍의 도끼
2016-10-03 02:00:24	shs544:[낭만]	실패	[268700663]+7혈풍의 도끼
2016-10-03 02:00:25	shs544:[낭만]	실패	[268700665]+7혈풍의 도끼
2016-10-03 02:00:26	shs544:[낭만]	실패	[268700688]+7혈풍의 도끼
2016-10-03 02:00:26	shs544:[낭만]	성공	[268700689]+8혈풍의 도끼
2016-10-03 02:00:27	thsekaql123:[라이트발드]	성공	[268700704]+8오리하루콘 단검
2016-10-03 02:00:27	shs544:[낭만]	실패	[268700712]+7혈풍의 도끼
2016-10-03 02:00:28	shs544:[낭만]	성공	[268700713]+8혈풍의 도끼
2016-10-03 02:00:29	thsekaql123:[라이트발드]	실패	[268700705]+7오리하루콘 단검
2016-10-03 02:00:29	shs544:[낭만]	실패	[268700715]+7혈풍의 도끼
2016-10-03 02:00:30	thsekaql123:[라이트발드]	실패	[268700706]+7오리하루콘 단검
2016-10-03 02:00:31	thsekaql123:[라이트발드]	실패	[268700707]+7오리하루콘 단검
2016-10-03 02:00:32	thsekaql123:[라이트발드]	실패	[268700708]+7오리하루콘 단검
2016-10-03 02:00:34	thsekaql123:[라이트발드]	실패	[268700709]+7오리하루콘 단검
2016-10-03 02:00:35	thsekaql123:[라이트발드]	실패	[268700710]+7오리하루콘 단검
2016-10-03 02:00:42	thsekaql123:[라이트발드]	실패	[268700704]+8오리하루콘 단검
2016-10-03 02:00:43	thsekaql123:[라이트발드]	실패	[268700703]+8오리하루콘 단검
2016-10-03 02:00:45	thsekaql123:[라이트발드]	실패	[268700701]+8오리하루콘 단검
2016-10-03 02:00:46	thsekaql123:[라이트발드]	실패	[268700693]+8오리하루콘 단검
2016-10-03 02:00:48	thsekaql123:[라이트발드]	실패	[268700691]+8오리하루콘 단검
2016-10-03 02:00:58	thsekaql123:[라이트발드]	실패	[268700645]+8오리하루콘 단검
2016-10-03 02:01:13	thsekaql123:[라이트발드]	실패	[268700760]+8오리하루콘 단검
2016-10-03 02:01:15	thsekaql123:[라이트발드]	실패	[268700761]+8오리하루콘 단검
2016-10-03 02:01:17	thsekaql123:[라이트발드]	실패	[268700762]+8오리하루콘 단검
2016-10-03 02:01:18	thsekaql123:[라이트발드]	실패	[268700763]+8오리하루콘 단검
2016-10-03 02:01:20	thsekaql123:[라이트발드]	실패	[268700764]+8오리하루콘 단검
2016-10-03 02:01:22	thsekaql123:[라이트발드]	실패	[268700765]+8오리하루콘 단검
2016-10-03 02:01:23	thsekaql123:[라이트발드]	실패	[268700766]+8오리하루콘 단검
2016-10-03 02:01:25	thsekaql123:[라이트발드]	실패	[268700767]+8오리하루콘 단검
2016-10-03 02:01:26	thsekaql123:[라이트발드]	실패	[268700768]+8오리하루콘 단검
2016-10-03 02:01:27	thsekaql123:[라이트발드]	실패	[268700769]+8오리하루콘 단검
2016-10-03 02:01:29	thsekaql123:[라이트발드]	실패	[268700770]+8오리하루콘 단검
2016-10-03 02:01:30	thsekaql123:[라이트발드]	성공	[268700771]+9오리하루콘 단검
2016-10-03 02:01:44	thsekaql123:[라이트발드]	실패	[268700772]+8오리하루콘 단검
2016-10-03 02:01:45	thsekaql123:[라이트발드]	실패	[268700773]+8오리하루콘 단검
2016-10-03 02:02:00	thsekaql123:[라이트발드]	실패	[268700774]+8오리하루콘 단검
2016-10-03 02:02:01	thsekaql123:[라이트발드]	실패	[268700775]+8오리하루콘 단검
2016-10-03 02:02:02	thsekaql123:[라이트발드]	실패	[268700776]+8오리하루콘 단검
2016-10-03 02:02:03	thsekaql123:[라이트발드]	실패	[268700777]+8오리하루콘 단검
2016-10-03 02:02:04	thsekaql123:[라이트발드]	실패	[268700778]+8오리하루콘 단검
2016-10-03 02:02:06	thsekaql123:[라이트발드]	실패	[268700779]+8오리하루콘 단검
2016-10-03 02:03:58	thsekaql123:[라이트발드]	실패	[268700771]+9오리하루콘 단검
2016-10-03 02:04:07	thsekaql123:[라이트발드]	실패	[268643736]+6데스 블레이드
2016-10-03 02:05:37	thsekaql123:[라이트발드]	실패	[268700843]+9오리하루콘 단검
2016-10-03 02:05:38	thsekaql123:[라이트발드]	실패	[268700844]+9오리하루콘 단검
2016-10-03 02:05:40	thsekaql123:[라이트발드]	실패	[268700845]+9오리하루콘 단검
2016-10-03 02:05:41	thsekaql123:[라이트발드]	실패	[268700846]+9오리하루콘 단검
2016-10-03 02:05:43	thsekaql123:[라이트발드]	실패	[268700847]+9오리하루콘 단검
2016-10-03 02:05:45	thsekaql123:[라이트발드]	실패	[268700848]+9오리하루콘 단검
2016-10-03 02:05:46	thsekaql123:[라이트발드]	실패	[268700849]+9오리하루콘 단검
2016-10-03 02:05:48	thsekaql123:[라이트발드]	실패	[268700850]+9오리하루콘 단검
2016-10-03 02:05:50	thsekaql123:[라이트발드]	실패	[268700851]+9오리하루콘 단검
2016-10-03 02:05:51	thsekaql123:[라이트발드]	실패	[268700852]+9오리하루콘 단검
2016-10-03 02:05:53	thsekaql123:[라이트발드]	실패	[268700853]+9오리하루콘 단검
2016-10-03 02:05:55	thsekaql123:[라이트발드]	실패	[268700854]+9오리하루콘 단검
2016-10-03 02:05:56	thsekaql123:[라이트발드]	실패	[268700855]+9오리하루콘 단검
2016-10-03 02:05:58	thsekaql123:[라이트발드]	실패	[268700856]+9오리하루콘 단검
2016-10-03 02:05:59	thsekaql123:[라이트발드]	실패	[268700857]+9오리하루콘 단검
2016-10-03 02:06:01	thsekaql123:[라이트발드]	실패	[268700858]+9오리하루콘 단검
2016-10-03 02:06:02	thsekaql123:[라이트발드]	실패	[268700859]+9오리하루콘 단검
2016-10-03 02:06:04	thsekaql123:[라이트발드]	실패	[268700860]+9오리하루콘 단검
2016-10-03 02:06:11	thsekaql123:[라이트발드]	실패	[268700861]+9오리하루콘 단검
2016-10-03 02:06:12	thsekaql123:[라이트발드]	실패	[268700862]+9오리하루콘 단검
2016-10-03 02:06:15	thsekaql123:[라이트발드]	실패	[268700863]+9오리하루콘 단검
2016-10-03 02:06:17	thsekaql123:[라이트발드]	실패	[268700864]+9오리하루콘 단검
2016-10-03 02:06:19	thsekaql123:[라이트발드]	실패	[268700865]+9오리하루콘 단검
2016-10-03 02:06:21	thsekaql123:[라이트발드]	실패	[268700866]+9오리하루콘 단검
2016-10-03 02:06:22	thsekaql123:[라이트발드]	실패	[268700867]+9오리하루콘 단검
2016-10-03 02:06:28	thsekaql123:[라이트발드]	실패	[268700868]+9오리하루콘 단검
2016-10-03 02:06:29	thsekaql123:[라이트발드]	실패	[268700869]+9오리하루콘 단검
2016-10-03 02:06:31	thsekaql123:[라이트발드]	실패	[268700870]+9오리하루콘 단검
2016-10-03 02:06:33	thsekaql123:[라이트발드]	실패	[268700871]+9오리하루콘 단검
2016-10-03 02:06:34	thsekaql123:[라이트발드]	실패	[268700872]+9오리하루콘 단검
2016-10-03 02:06:37	xotqj11:[메티스]	성공	[268700810]+7오리하루콘 단검
2016-10-03 02:07:00	thsekaql123:[라이트발드]	실패	[268700880]+9오리하루콘 단검
2016-10-03 02:07:01	thsekaql123:[라이트발드]	실패	[268700881]+9오리하루콘 단검
2016-10-03 02:07:03	thsekaql123:[라이트발드]	실패	[268700882]+9오리하루콘 단검
2016-10-03 02:07:04	thsekaql123:[라이트발드]	실패	[268700883]+9오리하루콘 단검
2016-10-03 02:07:05	thsekaql123:[라이트발드]	실패	[268700884]+9오리하루콘 단검
2016-10-03 02:07:07	thsekaql123:[라이트발드]	실패	[268700885]+9오리하루콘 단검
2016-10-03 02:07:08	thsekaql123:[라이트발드]	실패	[268700886]+9오리하루콘 단검
2016-10-03 02:07:09	thsekaql123:[라이트발드]	실패	[268700887]+9오리하루콘 단검
2016-10-03 02:07:11	thsekaql123:[라이트발드]	실패	[268700888]+9오리하루콘 단검
2016-10-03 02:07:12	thsekaql123:[라이트발드]	실패	[268700889]+9오리하루콘 단검
2016-10-03 02:07:13	thsekaql123:[라이트발드]	실패	[268700890]+9오리하루콘 단검
2016-10-03 02:07:16	thsekaql123:[라이트발드]	실패	[268700891]+9오리하루콘 단검
2016-10-03 02:07:17	thsekaql123:[라이트발드]	실패	[268700892]+9오리하루콘 단검
2016-10-03 02:07:18	thsekaql123:[라이트발드]	실패	[268700893]+9오리하루콘 단검
2016-10-03 02:07:19	thsekaql123:[라이트발드]	실패	[268700894]+9오리하루콘 단검
2016-10-03 02:07:20	thsekaql123:[라이트발드]	실패	[268700895]+9오리하루콘 단검
2016-10-03 02:07:21	thsekaql123:[라이트발드]	실패	[268700896]+9오리하루콘 단검
2016-10-03 02:07:22	thsekaql123:[라이트발드]	실패	[268700897]+9오리하루콘 단검
2016-10-03 02:07:23	thsekaql123:[라이트발드]	실패	[268700898]+9오리하루콘 단검
2016-10-03 02:07:24	thsekaql123:[라이트발드]	실패	[268700899]+9오리하루콘 단검
2016-10-03 02:07:25	thsekaql123:[라이트발드]	실패	[268700900]+9오리하루콘 단검
2016-10-03 02:07:26	thsekaql123:[라이트발드]	실패	[268700901]+9오리하루콘 단검
2016-10-03 02:07:27	thsekaql123:[라이트발드]	실패	[268700902]+9오리하루콘 단검
2016-10-03 02:07:28	thsekaql123:[라이트발드]	실패	[268700903]+9오리하루콘 단검
2016-10-03 02:07:29	thsekaql123:[라이트발드]	실패	[268700904]+9오리하루콘 단검
2016-10-03 02:07:30	thsekaql123:[라이트발드]	실패	[268700905]+9오리하루콘 단검
2016-10-03 02:07:31	thsekaql123:[라이트발드]	실패	[268700906]+9오리하루콘 단검
2016-10-03 02:07:32	thsekaql123:[라이트발드]	실패	[268700907]+9오리하루콘 단검
2016-10-03 02:07:33	thsekaql123:[라이트발드]	실패	[268700908]+9오리하루콘 단검
2016-10-03 02:07:34	thsekaql123:[라이트발드]	실패	[268700909]+9오리하루콘 단검
2016-10-03 02:07:35	thsekaql123:[라이트발드]	실패	[268700910]+9오리하루콘 단검
2016-10-03 02:07:36	thsekaql123:[라이트발드]	실패	[268700911]+9오리하루콘 단검
2016-10-03 02:07:37	thsekaql123:[라이트발드]	실패	[268700912]+9오리하루콘 단검
2016-10-03 02:07:38	thsekaql123:[라이트발드]	실패	[268700913]+9오리하루콘 단검
2016-10-03 02:07:39	thsekaql123:[라이트발드]	실패	[268700914]+9오리하루콘 단검
2016-10-03 02:07:40	thsekaql123:[라이트발드]	실패	[268700915]+9오리하루콘 단검
2016-10-03 02:07:41	thsekaql123:[라이트발드]	실패	[268700916]+9오리하루콘 단검
2016-10-03 02:07:42	thsekaql123:[라이트발드]	실패	[268700917]+9오리하루콘 단검
2016-10-03 02:07:43	thsekaql123:[라이트발드]	실패	[268700918]+9오리하루콘 단검
2016-10-03 02:07:44	thsekaql123:[라이트발드]	실패	[268700919]+9오리하루콘 단검
2016-10-03 02:07:45	thsekaql123:[라이트발드]	실패	[268700920]+9오리하루콘 단검
2016-10-03 02:07:46	thsekaql123:[라이트발드]	실패	[268700921]+9오리하루콘 단검
2016-10-03 02:07:47	thsekaql123:[라이트발드]	실패	[268700922]+9오리하루콘 단검
2016-10-03 02:07:48	thsekaql123:[라이트발드]	실패	[268700923]+9오리하루콘 단검
2016-10-03 02:07:49	thsekaql123:[라이트발드]	실패	[268700924]+9오리하루콘 단검
2016-10-03 02:07:50	thsekaql123:[라이트발드]	실패	[268700925]+9오리하루콘 단검
2016-10-03 02:07:51	thsekaql123:[라이트발드]	실패	[268700926]+9오리하루콘 단검
2016-10-03 02:07:52	thsekaql123:[라이트발드]	실패	[268700927]+9오리하루콘 단검
2016-10-03 02:07:53	thsekaql123:[라이트발드]	실패	[268700928]+9오리하루콘 단검
2016-10-03 02:07:55	thsekaql123:[라이트발드]	실패	[268700930]+9오리하루콘 단검
2016-10-03 02:10:29	thsekaql123:[라이트발드]	실패	[268700959]+9오리하루콘 단검
2016-10-03 02:10:30	thsekaql123:[라이트발드]	실패	[268700960]+9오리하루콘 단검
2016-10-03 02:10:33	thsekaql123:[라이트발드]	실패	[268700963]+9오리하루콘 단검
2016-10-03 02:10:34	thsekaql123:[라이트발드]	실패	[268700964]+9오리하루콘 단검
2016-10-03 02:10:35	thsekaql123:[라이트발드]	실패	[268700965]+9오리하루콘 단검
2016-10-03 02:10:36	thsekaql123:[라이트발드]	실패	[268700966]+9오리하루콘 단검
2016-10-03 02:10:37	thsekaql123:[라이트발드]	실패	[268700967]+9오리하루콘 단검
2016-10-03 02:10:39	thsekaql123:[라이트발드]	실패	[268700968]+9오리하루콘 단검
2016-10-03 02:10:40	thsekaql123:[라이트발드]	실패	[268700969]+9오리하루콘 단검
2016-10-03 02:10:41	thsekaql123:[라이트발드]	실패	[268700970]+9오리하루콘 단검
2016-10-03 02:10:42	thsekaql123:[라이트발드]	실패	[268700971]+9오리하루콘 단검
2016-10-03 02:10:43	thsekaql123:[라이트발드]	실패	[268700972]+9오리하루콘 단검
2016-10-03 02:10:44	thsekaql123:[라이트발드]	실패	[268700973]+9오리하루콘 단검
2016-10-03 02:10:45	thsekaql123:[라이트발드]	실패	[268700974]+9오리하루콘 단검
2016-10-03 02:10:47	thsekaql123:[라이트발드]	실패	[268700975]+9오리하루콘 단검
2016-10-03 02:10:48	thsekaql123:[라이트발드]	실패	[268700976]+9오리하루콘 단검
2016-10-03 02:10:49	thsekaql123:[라이트발드]	실패	[268700977]+9오리하루콘 단검
2016-10-03 02:10:49	xotqj11:[메티스]	실패	[268701011]+9오리하루콘 단검
2016-10-03 02:10:50	xotqj11:[메티스]	실패	[268701012]+9오리하루콘 단검
2016-10-03 02:10:50	thsekaql123:[라이트발드]	실패	[268700978]+9오리하루콘 단검
2016-10-03 02:10:50	xotqj11:[메티스]	실패	[268701013]+9오리하루콘 단검
2016-10-03 02:10:51	xotqj11:[메티스]	실패	[268701014]+9오리하루콘 단검
2016-10-03 02:10:51	thsekaql123:[라이트발드]	실패	[268700979]+9오리하루콘 단검
2016-10-03 02:10:51	xotqj11:[메티스]	실패	[268701015]+9오리하루콘 단검
2016-10-03 02:10:52	xotqj11:[메티스]	실패	[268701016]+9오리하루콘 단검
2016-10-03 02:10:52	thsekaql123:[라이트발드]	실패	[268700980]+9오리하루콘 단검
2016-10-03 02:10:53	xotqj11:[메티스]	실패	[268701017]+9오리하루콘 단검
2016-10-03 02:10:53	xotqj11:[메티스]	실패	[268701018]+9오리하루콘 단검
2016-10-03 02:10:53	thsekaql123:[라이트발드]	실패	[268700981]+9오리하루콘 단검
2016-10-03 02:10:54	xotqj11:[메티스]	실패	[268701019]+9오리하루콘 단검
2016-10-03 02:10:55	thsekaql123:[라이트발드]	실패	[268700982]+9오리하루콘 단검
2016-10-03 02:10:55	xotqj11:[메티스]	실패	[268701020]+9오리하루콘 단검
2016-10-03 02:10:56	thsekaql123:[라이트발드]	실패	[268700983]+9오리하루콘 단검
2016-10-03 02:10:56	xotqj11:[메티스]	실패	[268701021]+9오리하루콘 단검
2016-10-03 02:10:56	xotqj11:[메티스]	실패	[268701022]+9오리하루콘 단검
2016-10-03 02:10:57	thsekaql123:[라이트발드]	실패	[268700984]+9오리하루콘 단검
2016-10-03 02:10:57	xotqj11:[메티스]	실패	[268701023]+9오리하루콘 단검
2016-10-03 02:10:58	xotqj11:[메티스]	실패	[268701024]+9오리하루콘 단검
2016-10-03 02:10:58	thsekaql123:[라이트발드]	실패	[268700985]+9오리하루콘 단검
2016-10-03 02:10:58	xotqj11:[메티스]	실패	[268701025]+9오리하루콘 단검
2016-10-03 02:10:59	thsekaql123:[라이트발드]	실패	[268700986]+9오리하루콘 단검
2016-10-03 02:10:59	xotqj11:[메티스]	실패	[268701026]+9오리하루콘 단검
2016-10-03 02:11:00	xotqj11:[메티스]	실패	[268701027]+9오리하루콘 단검
2016-10-03 02:11:00	xotqj11:[메티스]	실패	[268701028]+9오리하루콘 단검
2016-10-03 02:11:01	xotqj11:[메티스]	실패	[268701029]+9오리하루콘 단검
2016-10-03 02:11:01	thsekaql123:[라이트발드]	실패	[268700987]+9오리하루콘 단검
2016-10-03 02:11:02	xotqj11:[메티스]	실패	[268701030]+9오리하루콘 단검
2016-10-03 02:11:02	xotqj11:[메티스]	실패	[268701031]+9오리하루콘 단검
2016-10-03 02:11:02	thsekaql123:[라이트발드]	실패	[268700988]+9오리하루콘 단검
2016-10-03 02:11:03	xotqj11:[메티스]	실패	[268701032]+9오리하루콘 단검
2016-10-03 02:11:03	thsekaql123:[라이트발드]	실패	[268700989]+9오리하루콘 단검
2016-10-03 02:11:04	xotqj11:[메티스]	실패	[268701033]+9오리하루콘 단검
2016-10-03 02:11:04	thsekaql123:[라이트발드]	실패	[268700990]+9오리하루콘 단검
2016-10-03 02:11:05	xotqj11:[메티스]	실패	[268701034]+9오리하루콘 단검
2016-10-03 02:11:05	thsekaql123:[라이트발드]	실패	[268700991]+9오리하루콘 단검
2016-10-03 02:11:06	xotqj11:[메티스]	실패	[268701035]+9오리하루콘 단검
2016-10-03 02:11:07	xotqj11:[메티스]	실패	[268701036]+9오리하루콘 단검
2016-10-03 02:11:07	thsekaql123:[라이트발드]	실패	[268700992]+9오리하루콘 단검
2016-10-03 02:11:07	xotqj11:[메티스]	실패	[268701037]+9오리하루콘 단검
2016-10-03 02:11:07	thsekaql123:[라이트발드]	실패	[268700993]+9오리하루콘 단검
2016-10-03 02:11:08	xotqj11:[메티스]	실패	[268701038]+9오리하루콘 단검
2016-10-03 02:11:08	thsekaql123:[라이트발드]	실패	[268700994]+9오리하루콘 단검
2016-10-03 02:11:08	xotqj11:[메티스]	실패	[268701039]+9오리하루콘 단검
2016-10-03 02:11:09	xotqj11:[메티스]	실패	[268701040]+9오리하루콘 단검
2016-10-03 02:11:09	thsekaql123:[라이트발드]	실패	[268700995]+9오리하루콘 단검
2016-10-03 02:11:10	xotqj11:[메티스]	실패	[268701041]+9오리하루콘 단검
2016-10-03 02:11:10	thsekaql123:[라이트발드]	실패	[268700996]+9오리하루콘 단검
2016-10-03 02:11:10	xotqj11:[메티스]	실패	[268701042]+9오리하루콘 단검
2016-10-03 02:11:11	xotqj11:[메티스]	실패	[268701043]+9오리하루콘 단검
2016-10-03 02:11:11	thsekaql123:[라이트발드]	실패	[268700997]+9오리하루콘 단검
2016-10-03 02:11:12	xotqj11:[메티스]	실패	[268701044]+9오리하루콘 단검
2016-10-03 02:11:12	thsekaql123:[라이트발드]	실패	[268700998]+9오리하루콘 단검
2016-10-03 02:11:13	xotqj11:[메티스]	실패	[268701045]+9오리하루콘 단검
2016-10-03 02:11:13	xotqj11:[메티스]	실패	[268701046]+9오리하루콘 단검
2016-10-03 02:11:14	xotqj11:[메티스]	실패	[268701047]+9오리하루콘 단검
2016-10-03 02:11:14	xotqj11:[메티스]	실패	[268701048]+9오리하루콘 단검
2016-10-03 02:11:15	thsekaql123:[라이트발드]	실패	[268700999]+9오리하루콘 단검
2016-10-03 02:11:15	xotqj11:[메티스]	실패	[268701049]+9오리하루콘 단검
2016-10-03 02:11:16	xotqj11:[메티스]	실패	[268701050]+9오리하루콘 단검
2016-10-03 02:11:16	xotqj11:[메티스]	실패	[268701051]+9오리하루콘 단검
2016-10-03 02:11:17	xotqj11:[메티스]	실패	[268701052]+9오리하루콘 단검
2016-10-03 02:11:17	xotqj11:[메티스]	실패	[268701053]+9오리하루콘 단검
2016-10-03 02:11:18	xotqj11:[메티스]	실패	[268701054]+9오리하루콘 단검
2016-10-03 02:11:19	xotqj11:[메티스]	실패	[268701055]+9오리하루콘 단검
2016-10-03 02:11:19	xotqj11:[메티스]	실패	[268701056]+9오리하루콘 단검
2016-10-03 02:11:20	xotqj11:[메티스]	실패	[268701057]+9오리하루콘 단검
2016-10-03 02:11:21	xotqj11:[메티스]	실패	[268701058]+9오리하루콘 단검
2016-10-03 02:11:21	xotqj11:[메티스]	실패	[268701059]+9오리하루콘 단검
2016-10-03 02:11:22	xotqj11:[메티스]	실패	[268701060]+9오리하루콘 단검
2016-10-03 02:11:24	thsekaql123:[라이트발드]	실패	[268701000]+9오리하루콘 단검
2016-10-03 02:11:25	thsekaql123:[라이트발드]	실패	[268701001]+9오리하루콘 단검
2016-10-03 02:11:26	thsekaql123:[라이트발드]	실패	[268701002]+9오리하루콘 단검
2016-10-03 02:11:27	thsekaql123:[라이트발드]	실패	[268701003]+9오리하루콘 단검
2016-10-03 02:11:27	xotqj11:[메티스]	실패	[268700728]+9오리하루콘 단검
2016-10-03 02:11:28	thsekaql123:[라이트발드]	실패	[268701004]+9오리하루콘 단검
2016-10-03 02:11:29	thsekaql123:[라이트발드]	실패	[268701005]+9오리하루콘 단검
2016-10-03 02:11:29	thsekaql123:[라이트발드]	실패	[268701006]+9오리하루콘 단검
2016-10-03 02:11:30	thsekaql123:[라이트발드]	실패	[268701007]+9오리하루콘 단검
2016-10-03 02:11:30	xotqj11:[메티스]	실패	[268700831]+6오리하루콘 단검
2016-10-03 02:11:31	xotqj11:[메티스]	실패	[268700830]+6오리하루콘 단검
2016-10-03 02:11:31	thsekaql123:[라이트발드]	실패	[268701008]+9오리하루콘 단검
2016-10-03 02:11:31	xotqj11:[메티스]	성공	[268700829]+7오리하루콘 단검
2016-10-03 02:11:32	thsekaql123:[라이트발드]	실패	[268700962]+9오리하루콘 단검
2016-10-03 02:11:32	xotqj11:[메티스]	실패	[268700828]+6오리하루콘 단검
2016-10-03 02:11:32	thsekaql123:[라이트발드]	실패	[268700961]+9오리하루콘 단검
2016-10-03 02:11:33	xotqj11:[메티스]	실패	[268700827]+6오리하루콘 단검
2016-10-03 02:11:33	xotqj11:[메티스]	실패	[268700826]+6오리하루콘 단검
2016-10-03 02:11:34	xotqj11:[메티스]	성공	[268700825]+7오리하루콘 단검
2016-10-03 02:11:35	xotqj11:[메티스]	실패	[268700824]+6오리하루콘 단검
2016-10-03 02:12:01	xotqj11:[메티스]	실패	[268700823]+6오리하루콘 단검
2016-10-03 02:12:02	xotqj11:[메티스]	실패	[268700822]+6오리하루콘 단검
2016-10-03 02:12:02	xotqj11:[메티스]	실패	[268700821]+6오리하루콘 단검
2016-10-03 02:12:03	xotqj11:[메티스]	성공	[268700820]+7오리하루콘 단검
2016-10-03 02:12:03	xotqj11:[메티스]	실패	[268700819]+6오리하루콘 단검
2016-10-03 02:12:03	xotqj11:[메티스]	실패	[268700818]+6오리하루콘 단검
2016-10-03 02:12:04	xotqj11:[메티스]	실패	[268700817]+6오리하루콘 단검
2016-10-03 02:12:04	xotqj11:[메티스]	실패	[268700816]+6오리하루콘 단검
2016-10-03 02:12:05	xotqj11:[메티스]	성공	[268700815]+7오리하루콘 단검
2016-10-03 02:12:05	xotqj11:[메티스]	성공	[268700814]+7오리하루콘 단검
2016-10-03 02:12:06	xotqj11:[메티스]	실패	[268700813]+6오리하루콘 단검
2016-10-03 02:12:07	xotqj11:[메티스]	성공	[268700812]+7오리하루콘 단검
2016-10-03 02:12:07	xotqj11:[메티스]	실패	[268700811]+6오리하루콘 단검
2016-10-03 02:12:09	xotqj11:[메티스]	실패	[268700810]+7오리하루콘 단검
2016-10-03 02:12:10	xotqj11:[메티스]	성공	[268700809]+7오리하루콘 단검
2016-10-03 02:12:11	xotqj11:[메티스]	성공	[268700808]+7오리하루콘 단검
2016-10-03 02:12:11	xotqj11:[메티스]	성공	[268700807]+7오리하루콘 단검
2016-10-03 02:12:12	xotqj11:[메티스]	실패	[268700806]+6오리하루콘 단검
2016-10-03 02:12:12	xotqj11:[메티스]	성공	[268700805]+7오리하루콘 단검
2016-10-03 02:12:13	xotqj11:[메티스]	실패	[268700804]+6오리하루콘 단검
2016-10-03 02:12:14	xotqj11:[메티스]	실패	[268700803]+6오리하루콘 단검
2016-10-03 02:12:14	xotqj11:[메티스]	성공	[268700802]+7오리하루콘 단검
2016-10-03 02:12:14	xotqj11:[메티스]	성공	[268700801]+7오리하루콘 단검
2016-10-03 02:12:15	xotqj11:[메티스]	성공	[268700800]+7오리하루콘 단검
2016-10-03 02:12:15	xotqj11:[메티스]	실패	[268700799]+6오리하루콘 단검
2016-10-03 02:12:16	xotqj11:[메티스]	성공	[268700798]+7오리하루콘 단검
2016-10-03 02:12:16	xotqj11:[메티스]	성공	[268700797]+7오리하루콘 단검
2016-10-03 02:12:17	xotqj11:[메티스]	실패	[268700796]+6오리하루콘 단검
2016-10-03 02:12:17	xotqj11:[메티스]	실패	[268700795]+6오리하루콘 단검
2016-10-03 02:12:17	xotqj11:[메티스]	실패	[268700794]+6오리하루콘 단검
2016-10-03 02:12:18	xotqj11:[메티스]	실패	[268700793]+6오리하루콘 단검
2016-10-03 02:12:18	xotqj11:[메티스]	성공	[268700792]+7오리하루콘 단검
2016-10-03 02:12:19	xotqj11:[메티스]	실패	[268700829]+7오리하루콘 단검
2016-10-03 02:12:20	xotqj11:[메티스]	실패	[268700825]+7오리하루콘 단검
2016-10-03 02:12:20	xotqj11:[메티스]	실패	[268700820]+7오리하루콘 단검
2016-10-03 02:12:20	xotqj11:[메티스]	실패	[268700815]+7오리하루콘 단검
2016-10-03 02:12:21	xotqj11:[메티스]	실패	[268700814]+7오리하루콘 단검
2016-10-03 02:12:21	xotqj11:[메티스]	실패	[268700812]+7오리하루콘 단검
2016-10-03 02:12:22	xotqj11:[메티스]	실패	[268700809]+7오리하루콘 단검
2016-10-03 02:12:22	xotqj11:[메티스]	실패	[268700808]+7오리하루콘 단검
2016-10-03 02:12:22	xotqj11:[메티스]	실패	[268700807]+7오리하루콘 단검
2016-10-03 02:12:23	xotqj11:[메티스]	실패	[268700805]+7오리하루콘 단검
2016-10-03 02:12:23	xotqj11:[메티스]	실패	[268700802]+7오리하루콘 단검
2016-10-03 02:12:24	xotqj11:[메티스]	실패	[268700801]+7오리하루콘 단검
2016-10-03 02:12:24	xotqj11:[메티스]	성공	[268700800]+8오리하루콘 단검
2016-10-03 02:12:25	xotqj11:[메티스]	실패	[268700798]+7오리하루콘 단검
2016-10-03 02:12:25	xotqj11:[메티스]	실패	[268700797]+7오리하루콘 단검
2016-10-03 02:12:26	xotqj11:[메티스]	실패	[268700792]+7오리하루콘 단검
2016-10-03 02:12:27	xotqj11:[메티스]	실패	[268700800]+8오리하루콘 단검
2016-10-03 02:12:55	thsekaql123:[라이트발드]	성공	[268701077]+10오리하루콘 단검
2016-10-03 02:13:22	thsekaql123:[라이트발드]	성공	[268701076]+10오리하루콘 단검
2016-10-03 02:13:29	thsekaql123:[라이트발드]	성공	[268701075]+10오리하루콘 단검
2016-10-03 02:13:35	thsekaql123:[라이트발드]	성공	[268701074]+10오리하루콘 단검
2016-10-03 02:13:48	thsekaql123:[라이트발드]	성공	[268701081]+10오리하루콘 단검
2016-10-03 02:14:04	thsekaql123:[라이트발드]	성공	[268701079]+10오리하루콘 단검
2016-10-03 02:14:31	thsekaql123:[라이트발드]	성공	[268701078]+10오리하루콘 단검
2016-10-03 02:15:30	thsekaql123:[라이트발드]	실패	[268701077]+10오리하루콘 단검
2016-10-03 02:15:32	thsekaql123:[라이트발드]	실패	[268701076]+10오리하루콘 단검
2016-10-03 02:15:33	thsekaql123:[라이트발드]	실패	[268701075]+10오리하루콘 단검
2016-10-03 02:15:35	thsekaql123:[라이트발드]	실패	[268701080]+9오리하루콘 단검
2016-10-03 02:15:36	thsekaql123:[라이트발드]	실패	[268701079]+10오리하루콘 단검
2016-10-03 02:16:18	thsekaql123:[라이트발드]	실패	[268701081]+10오리하루콘 단검
2016-10-03 02:16:19	thsekaql123:[라이트발드]	실패	[268701074]+10오리하루콘 단검
2016-10-03 02:16:20	thsekaql123:[라이트발드]	실패	[268701078]+10오리하루콘 단검
2016-10-03 02:16:22	thsekaql123:[라이트발드]	실패	[268701082]+9오리하루콘 단검
2016-10-03 02:16:23	thsekaql123:[라이트발드]	실패	[268701083]+9오리하루콘 단검
2016-10-03 02:17:47	xotqj11:[메티스]	실패	[268701139]+8오리하루콘 단검
2016-10-03 02:17:48	xotqj11:[메티스]	실패	[268701138]+8오리하루콘 단검
2016-10-03 02:17:48	xotqj11:[메티스]	실패	[268701137]+8오리하루콘 단검
2016-10-03 02:17:49	xotqj11:[메티스]	실패	[268701136]+8오리하루콘 단검
2016-10-03 02:17:49	xotqj11:[메티스]	실패	[268701135]+8오리하루콘 단검
2016-10-03 02:17:49	thsekaql123:[라이트발드]	실패	[268701095]+8오리하루콘 단검
2016-10-03 02:17:49	xotqj11:[메티스]	실패	[268701134]+8오리하루콘 단검
2016-10-03 02:17:50	xotqj11:[메티스]	실패	[268701133]+8오리하루콘 단검
2016-10-03 02:17:50	xotqj11:[메티스]	실패	[268701132]+8오리하루콘 단검
2016-10-03 02:17:50	xotqj11:[메티스]	실패	[268701131]+8오리하루콘 단검
2016-10-03 02:17:51	xotqj11:[메티스]	실패	[268701130]+8오리하루콘 단검
2016-10-03 02:17:51	thsekaql123:[라이트발드]	실패	[268701096]+8오리하루콘 단검
2016-10-03 02:17:51	xotqj11:[메티스]	실패	[268701129]+8오리하루콘 단검
2016-10-03 02:17:51	xotqj11:[메티스]	실패	[268701128]+8오리하루콘 단검
2016-10-03 02:17:52	xotqj11:[메티스]	실패	[268701127]+8오리하루콘 단검
2016-10-03 02:17:52	xotqj11:[메티스]	실패	[268701126]+8오리하루콘 단검
2016-10-03 02:17:52	thsekaql123:[라이트발드]	실패	[268701097]+8오리하루콘 단검
2016-10-03 02:17:53	xotqj11:[메티스]	실패	[268701125]+8오리하루콘 단검
2016-10-03 02:17:53	xotqj11:[메티스]	실패	[268701124]+8오리하루콘 단검
2016-10-03 02:17:53	xotqj11:[메티스]	실패	[268701123]+8오리하루콘 단검
2016-10-03 02:17:54	thsekaql123:[라이트발드]	실패	[268701098]+8오리하루콘 단검
2016-10-03 02:17:54	xotqj11:[메티스]	실패	[268701122]+8오리하루콘 단검
2016-10-03 02:17:54	xotqj11:[메티스]	실패	[268701121]+8오리하루콘 단검
2016-10-03 02:17:55	xotqj11:[메티스]	성공	[268701120]+9오리하루콘 단검
2016-10-03 02:17:55	thsekaql123:[라이트발드]	실패	[268701099]+8오리하루콘 단검
2016-10-03 02:17:56	thsekaql123:[라이트발드]	실패	[268701100]+8오리하루콘 단검
2016-10-03 02:17:59	thsekaql123:[라이트발드]	실패	[268701101]+8오리하루콘 단검
2016-10-03 02:18:00	thsekaql123:[라이트발드]	실패	[268701102]+8오리하루콘 단검
2016-10-03 02:18:02	thsekaql123:[라이트발드]	실패	[268701103]+8오리하루콘 단검
2016-10-03 02:18:03	xotqj11:[메티스]	실패	[268701120]+9오리하루콘 단검
2016-10-03 02:18:03	thsekaql123:[라이트발드]	실패	[268701104]+8오리하루콘 단검
2016-10-03 02:18:04	thsekaql123:[라이트발드]	실패	[268701105]+8오리하루콘 단검
2016-10-03 02:18:05	thsekaql123:[라이트발드]	실패	[268701106]+8오리하루콘 단검
2016-10-03 02:18:06	thsekaql123:[라이트발드]	실패	[268701107]+8오리하루콘 단검
2016-10-03 02:18:08	thsekaql123:[라이트발드]	실패	[268701109]+8오리하루콘 단검
2016-10-03 02:18:11	thsekaql123:[라이트발드]	실패	[268701110]+8오리하루콘 단검
2016-10-03 02:18:12	thsekaql123:[라이트발드]	실패	[268701111]+8오리하루콘 단검
2016-10-03 02:18:13	thsekaql123:[라이트발드]	실패	[268701112]+8오리하루콘 단검
2016-10-03 02:18:14	thsekaql123:[라이트발드]	실패	[268701113]+8오리하루콘 단검
2016-10-03 02:18:15	thsekaql123:[라이트발드]	실패	[268701114]+8오리하루콘 단검
2016-10-03 02:18:24	thsekaql123:[라이트발드]	실패	[268701108]+8오리하루콘 단검
2016-10-03 02:19:31	xotqj11:[메티스]	실패	[268701286]+8오리하루콘 단검
2016-10-03 02:19:32	xotqj11:[메티스]	실패	[268701284]+8오리하루콘 단검
2016-10-03 02:19:32	xotqj11:[메티스]	실패	[268701283]+8오리하루콘 단검
2016-10-03 02:19:33	xotqj11:[메티스]	실패	[268701282]+8오리하루콘 단검
2016-10-03 02:19:33	xotqj11:[메티스]	실패	[268701281]+8오리하루콘 단검
2016-10-03 02:19:34	xotqj11:[메티스]	실패	[268701280]+8오리하루콘 단검
2016-10-03 02:19:34	xotqj11:[메티스]	실패	[268701279]+8오리하루콘 단검
2016-10-03 02:19:35	xotqj11:[메티스]	실패	[268701277]+8오리하루콘 단검
2016-10-03 02:19:35	xotqj11:[메티스]	실패	[268701278]+8오리하루콘 단검
2016-10-03 02:19:36	xotqj11:[메티스]	실패	[268701276]+8오리하루콘 단검
2016-10-03 02:19:36	xotqj11:[메티스]	실패	[268701275]+8오리하루콘 단검
2016-10-03 02:19:37	xotqj11:[메티스]	실패	[268701274]+8오리하루콘 단검
2016-10-03 02:19:37	xotqj11:[메티스]	실패	[268701273]+8오리하루콘 단검
2016-10-03 02:19:37	xotqj11:[메티스]	실패	[268701272]+8오리하루콘 단검
2016-10-03 02:19:38	xotqj11:[메티스]	실패	[268701271]+8오리하루콘 단검
2016-10-03 02:19:39	xotqj11:[메티스]	실패	[268701270]+8오리하루콘 단검
2016-10-03 02:19:40	xotqj11:[메티스]	성공	[268701269]+9오리하루콘 단검
2016-10-03 02:19:40	xotqj11:[메티스]	실패	[268701268]+8오리하루콘 단검
2016-10-03 02:19:41	xotqj11:[메티스]	실패	[268701267]+8오리하루콘 단검
2016-10-03 02:19:41	xotqj11:[메티스]	실패	[268701266]+8오리하루콘 단검
2016-10-03 02:19:42	xotqj11:[메티스]	실패	[268701265]+8오리하루콘 단검
2016-10-03 02:19:42	xotqj11:[메티스]	실패	[268701264]+8오리하루콘 단검
2016-10-03 02:19:43	xotqj11:[메티스]	성공	[268701263]+9오리하루콘 단검
2016-10-03 02:19:44	xotqj11:[메티스]	실패	[268701262]+8오리하루콘 단검
2016-10-03 02:19:44	xotqj11:[메티스]	실패	[268701261]+8오리하루콘 단검
2016-10-03 02:19:45	xotqj11:[메티스]	실패	[268701260]+8오리하루콘 단검
2016-10-03 02:19:45	xotqj11:[메티스]	실패	[268701259]+8오리하루콘 단검
2016-10-03 02:19:46	thsekaql123:[라이트발드]	실패	[268701299]+8오리하루콘 단검
2016-10-03 02:19:46	xotqj11:[메티스]	실패	[268701258]+8오리하루콘 단검
2016-10-03 02:19:47	xotqj11:[메티스]	실패	[268701257]+8오리하루콘 단검
2016-10-03 02:19:47	thsekaql123:[라이트발드]	실패	[268701295]+8오리하루콘 단검
2016-10-03 02:19:47	xotqj11:[메티스]	성공	[268701256]+9오리하루콘 단검
2016-10-03 02:19:48	thsekaql123:[라이트발드]	실패	[268701296]+8오리하루콘 단검
2016-10-03 02:19:49	thsekaql123:[라이트발드]	실패	[268701297]+8오리하루콘 단검
2016-10-03 02:19:51	thsekaql123:[라이트발드]	실패	[268701300]+8오리하루콘 단검
2016-10-03 02:19:52	thsekaql123:[라이트발드]	실패	[268701301]+8오리하루콘 단검
2016-10-03 02:19:53	thsekaql123:[라이트발드]	실패	[268701302]+8오리하루콘 단검
2016-10-03 02:19:54	thsekaql123:[라이트발드]	실패	[268701303]+8오리하루콘 단검
2016-10-03 02:19:55	thsekaql123:[라이트발드]	실패	[268701304]+8오리하루콘 단검
2016-10-03 02:19:56	thsekaql123:[라이트발드]	실패	[268701305]+8오리하루콘 단검
2016-10-03 02:19:57	thsekaql123:[라이트발드]	실패	[268701291]+8오리하루콘 단검
2016-10-03 02:19:58	thsekaql123:[라이트발드]	실패	[268701292]+8오리하루콘 단검
2016-10-03 02:19:59	thsekaql123:[라이트발드]	실패	[268701293]+8오리하루콘 단검
2016-10-03 02:20:00	thsekaql123:[라이트발드]	실패	[268701294]+8오리하루콘 단검
2016-10-03 02:20:01	thsekaql123:[라이트발드]	성공	[268701285]+9오리하루콘 단검
2016-10-03 02:20:02	xotqj11:[메티스]	실패	[268701269]+9오리하루콘 단검
2016-10-03 02:20:03	xotqj11:[메티스]	실패	[268701263]+9오리하루콘 단검
2016-10-03 02:20:04	xotqj11:[메티스]	실패	[268701256]+9오리하루콘 단검
2016-10-03 02:20:16	thsekaql123:[라이트발드]	실패	[268701287]+8오리하루콘 단검
2016-10-03 02:20:17	thsekaql123:[라이트발드]	실패	[268701288]+8오리하루콘 단검
2016-10-03 02:20:18	thsekaql123:[라이트발드]	실패	[268701289]+8오리하루콘 단검
2016-10-03 02:20:19	thsekaql123:[라이트발드]	실패	[268701290]+8오리하루콘 단검
2016-10-03 02:20:20	thsekaql123:[라이트발드]	실패	[268701298]+8오리하루콘 단검
2016-10-03 02:20:37	thsekaql123:[라이트발드]	성공	[268701285]+10오리하루콘 단검
2016-10-03 02:20:55	thsekaql123:[라이트발드]	실패	[268701285]+10오리하루콘 단검
2016-10-03 02:21:43	thsekaql123:[라이트발드]	실패	[268701315]+8오리하루콘 단검
2016-10-03 02:21:45	thsekaql123:[라이트발드]	실패	[268701316]+8오리하루콘 단검
2016-10-03 02:21:46	thsekaql123:[라이트발드]	실패	[268701317]+8오리하루콘 단검
2016-10-03 02:21:47	thsekaql123:[라이트발드]	실패	[268701318]+8오리하루콘 단검
2016-10-03 02:21:48	thsekaql123:[라이트발드]	실패	[268701319]+8오리하루콘 단검
2016-10-03 02:21:50	thsekaql123:[라이트발드]	실패	[268701320]+8오리하루콘 단검
2016-10-03 02:21:51	thsekaql123:[라이트발드]	실패	[268701321]+8오리하루콘 단검
2016-10-03 02:21:52	thsekaql123:[라이트발드]	성공	[268701322]+9오리하루콘 단검
2016-10-03 02:21:59	xotqj11:[메티스]	실패	[268701370]+8오리하루콘 단검
2016-10-03 02:22:05	xotqj11:[메티스]	실패	[268701369]+8오리하루콘 단검
2016-10-03 02:22:06	xotqj11:[메티스]	실패	[268701368]+8오리하루콘 단검
2016-10-03 02:22:06	xotqj11:[메티스]	실패	[268701367]+8오리하루콘 단검
2016-10-03 02:22:07	xotqj11:[메티스]	실패	[268701366]+8오리하루콘 단검
2016-10-03 02:22:07	xotqj11:[메티스]	실패	[268701365]+8오리하루콘 단검
2016-10-03 02:22:08	xotqj11:[메티스]	실패	[268701364]+8오리하루콘 단검
2016-10-03 02:22:08	xotqj11:[메티스]	실패	[268701363]+8오리하루콘 단검
2016-10-03 02:22:09	xotqj11:[메티스]	실패	[268701362]+8오리하루콘 단검
2016-10-03 02:22:09	xotqj11:[메티스]	실패	[268701361]+8오리하루콘 단검
2016-10-03 02:22:10	xotqj11:[메티스]	실패	[268701360]+8오리하루콘 단검
2016-10-03 02:22:10	xotqj11:[메티스]	실패	[268701359]+8오리하루콘 단검
2016-10-03 02:22:11	xotqj11:[메티스]	실패	[268701358]+8오리하루콘 단검
2016-10-03 02:22:11	xotqj11:[메티스]	실패	[268701357]+8오리하루콘 단검
2016-10-03 02:22:12	xotqj11:[메티스]	실패	[268701356]+8오리하루콘 단검
2016-10-03 02:22:12	xotqj11:[메티스]	성공	[268701355]+9오리하루콘 단검
2016-10-03 02:22:13	xotqj11:[메티스]	성공	[268701354]+9오리하루콘 단검
2016-10-03 02:22:13	xotqj11:[메티스]	성공	[268701353]+9오리하루콘 단검
2016-10-03 02:22:14	xotqj11:[메티스]	실패	[268701352]+8오리하루콘 단검
2016-10-03 02:22:14	xotqj11:[메티스]	실패	[268701351]+8오리하루콘 단검
2016-10-03 02:22:34	thsekaql123:[라이트발드]	실패	[268701322]+9오리하루콘 단검
2016-10-03 02:22:35	xotqj11:[메티스]	실패	[268701355]+9오리하루콘 단검
2016-10-03 02:22:35	thsekaql123:[라이트발드]	실패	[268701323]+8오리하루콘 단검
2016-10-03 02:22:35	xotqj11:[메티스]	실패	[268701354]+9오리하루콘 단검
2016-10-03 02:22:36	xotqj11:[메티스]	실패	[268701353]+9오리하루콘 단검
2016-10-03 02:22:36	thsekaql123:[라이트발드]	실패	[268701324]+8오리하루콘 단검
2016-10-03 02:22:37	thsekaql123:[라이트발드]	실패	[268701325]+8오리하루콘 단검
2016-10-03 02:22:37	thsekaql123:[라이트발드]	실패	[268701326]+8오리하루콘 단검
2016-10-03 02:22:38	thsekaql123:[라이트발드]	실패	[268701327]+8오리하루콘 단검
2016-10-03 02:22:39	thsekaql123:[라이트발드]	실패	[268701328]+8오리하루콘 단검
2016-10-03 02:22:40	thsekaql123:[라이트발드]	실패	[268701329]+8오리하루콘 단검
2016-10-03 02:22:40	thsekaql123:[라이트발드]	성공	[268701330]+9오리하루콘 단검
2016-10-03 02:22:52	thsekaql123:[라이트발드]	성공	[268701330]+10오리하루콘 단검
2016-10-03 02:23:03	thsekaql123:[라이트발드]	실패	[268701330]+10오리하루콘 단검
2016-10-03 02:23:05	thsekaql123:[라이트발드]	실패	[268701331]+8오리하루콘 단검
2016-10-03 02:23:06	thsekaql123:[라이트발드]	실패	[268701332]+8오리하루콘 단검
2016-10-03 02:23:06	thsekaql123:[라이트발드]	실패	[268701333]+8오리하루콘 단검
2016-10-03 02:23:07	thsekaql123:[라이트발드]	실패	[268701334]+8오리하루콘 단검
2016-10-03 02:25:58	thsekaql123:[라이트발드]	실패	[268701387]+4신성한 마법 방어 투구
2016-10-03 02:26:03	thsekaql123:[라이트발드]	실패	[268701388]+4신성한 마법 방어 투구
2016-10-03 02:26:09	thsekaql123:[라이트발드]	성공	[268701389]+5신성한 마법 방어 투구
2016-10-03 02:26:11	thsekaql123:[라이트발드]	실패	[268701389]+5신성한 마법 방어 투구
2016-10-03 02:26:27	thsekaql123:[라이트발드]	성공	[268701390]+5신성한 마법 방어 투구
2016-10-03 02:26:35	thsekaql123:[라이트발드]	성공	[268701391]+5신성한 마법 방어 투구
2016-10-03 02:26:40	thsekaql123:[라이트발드]	실패	[268701392]+4신성한 마법 방어 투구
2016-10-03 02:26:44	thsekaql123:[라이트발드]	실패	[268701393]+4신성한 마법 방어 투구
2016-10-03 02:26:49	thsekaql123:[라이트발드]	성공	[268701394]+5신성한 마법 방어 투구
2016-10-03 02:27:02	thsekaql123:[라이트발드]	실패	[268701395]+4신성한 마법 방어 투구
2016-10-03 02:27:06	xotqj11:[메티스]	실패	[268701468]+5신성한 마법 방어 투구
2016-10-03 02:27:07	thsekaql123:[라이트발드]	성공	[268701396]+5신성한 마법 방어 투구
2016-10-03 02:27:07	xotqj11:[메티스]	실패	[268701467]+5신성한 마법 방어 투구
2016-10-03 02:27:07	xotqj11:[메티스]	실패	[268701466]+5신성한 마법 방어 투구
2016-10-03 02:27:08	xotqj11:[메티스]	실패	[268701465]+5신성한 마법 방어 투구
2016-10-03 02:27:08	xotqj11:[메티스]	실패	[268701464]+5신성한 마법 방어 투구
2016-10-03 02:27:09	xotqj11:[메티스]	성공	[268701463]+6신성한 마법 방어 투구
2016-10-03 02:27:10	xotqj11:[메티스]	실패	[268701462]+5신성한 마법 방어 투구
2016-10-03 02:27:10	xotqj11:[메티스]	성공	[268701461]+6신성한 마법 방어 투구
2016-10-03 02:27:11	xotqj11:[메티스]	실패	[268701460]+5신성한 마법 방어 투구
2016-10-03 02:27:11	xotqj11:[메티스]	실패	[268701459]+5신성한 마법 방어 투구
2016-10-03 02:27:12	xotqj11:[메티스]	실패	[268701458]+5신성한 마법 방어 투구
2016-10-03 02:27:12	thsekaql123:[라이트발드]	성공	[268701397]+5신성한 마법 방어 투구
2016-10-03 02:27:12	xotqj11:[메티스]	성공	[268701457]+6신성한 마법 방어 투구
2016-10-03 02:27:13	xotqj11:[메티스]	실패	[268701456]+5신성한 마법 방어 투구
2016-10-03 02:27:14	xotqj11:[메티스]	실패	[268701455]+5신성한 마법 방어 투구
2016-10-03 02:27:14	shs544:[낭만]	실패	[268701415]+5신성한 마법 방어 투구
2016-10-03 02:27:14	xotqj11:[메티스]	실패	[268701454]+5신성한 마법 방어 투구
2016-10-03 02:27:15	xotqj11:[메티스]	실패	[268701453]+5신성한 마법 방어 투구
2016-10-03 02:27:15	shs544:[낭만]	실패	[268701407]+5신성한 마법 방어 투구
2016-10-03 02:27:15	xotqj11:[메티스]	성공	[268701452]+6신성한 마법 방어 투구
2016-10-03 02:27:16	xotqj11:[메티스]	성공	[268701451]+6신성한 마법 방어 투구
2016-10-03 02:27:16	xotqj11:[메티스]	실패	[268701451]+6신성한 마법 방어 투구
2016-10-03 02:27:16	shs544:[낭만]	실패	[268701408]+5신성한 마법 방어 투구
2016-10-03 02:27:17	shs544:[낭만]	성공	[268701409]+6신성한 마법 방어 투구
2016-10-03 02:27:17	thsekaql123:[라이트발드]	실패	[268701398]+4신성한 마법 방어 투구
2016-10-03 02:27:17	xotqj11:[메티스]	실패	[268701449]+5신성한 마법 방어 투구
2016-10-03 02:27:18	xotqj11:[메티스]	실패	[268701450]+5신성한 마법 방어 투구
2016-10-03 02:27:18	shs544:[낭만]	실패	[268701410]+5신성한 마법 방어 투구
2016-10-03 02:27:19	shs544:[낭만]	실패	[268701411]+5신성한 마법 방어 투구
2016-10-03 02:27:20	shs544:[낭만]	실패	[268701412]+5신성한 마법 방어 투구
2016-10-03 02:27:20	shs544:[낭만]	실패	[268701413]+5신성한 마법 방어 투구
2016-10-03 02:27:21	shs544:[낭만]	실패	[268701414]+5신성한 마법 방어 투구
2016-10-03 02:27:21	thsekaql123:[라이트발드]	성공	[268701399]+5신성한 마법 방어 투구
2016-10-03 02:27:22	xotqj11:[메티스]	실패	[268701463]+6신성한 마법 방어 투구
2016-10-03 02:27:22	shs544:[낭만]	실패	[268701416]+5신성한 마법 방어 투구
2016-10-03 02:27:22	xotqj11:[메티스]	실패	[268701461]+6신성한 마법 방어 투구
2016-10-03 02:27:22	shs544:[낭만]	실패	[268701417]+5신성한 마법 방어 투구
2016-10-03 02:27:23	xotqj11:[메티스]	실패	[268701457]+6신성한 마법 방어 투구
2016-10-03 02:27:23	xotqj11:[메티스]	실패	[268701452]+6신성한 마법 방어 투구
2016-10-03 02:27:23	shs544:[낭만]	실패	[268701418]+5신성한 마법 방어 투구
2016-10-03 02:27:24	shs544:[낭만]	실패	[268701419]+5신성한 마법 방어 투구
2016-10-03 02:27:25	shs544:[낭만]	실패	[268701420]+5신성한 마법 방어 투구
2016-10-03 02:27:25	shs544:[낭만]	실패	[268701421]+5신성한 마법 방어 투구
2016-10-03 02:27:26	shs544:[낭만]	실패	[268701422]+5신성한 마법 방어 투구
2016-10-03 02:27:27	shs544:[낭만]	실패	[268701423]+5신성한 마법 방어 투구
2016-10-03 02:27:27	shs544:[낭만]	실패	[268701424]+5신성한 마법 방어 투구
2016-10-03 02:27:28	thsekaql123:[라이트발드]	실패	[268701400]+4신성한 마법 방어 투구
2016-10-03 02:27:28	shs544:[낭만]	성공	[268701425]+6신성한 마법 방어 투구
2016-10-03 02:27:29	shs544:[낭만]	실패	[268701426]+5신성한 마법 방어 투구
2016-10-03 02:27:42	thsekaql123:[라이트발드]	실패	[268701401]+4신성한 마법 방어 투구
2016-10-03 02:27:46	thsekaql123:[라이트발드]	실패	[268701402]+4신성한 마법 방어 투구
2016-10-03 02:27:46	shs544:[낭만]	실패	[268701409]+6신성한 마법 방어 투구
2016-10-03 02:27:47	shs544:[낭만]	실패	[268701425]+6신성한 마법 방어 투구
2016-10-03 02:27:50	thsekaql123:[라이트발드]	실패	[268701403]+4신성한 마법 방어 투구
2016-10-03 02:27:54	thsekaql123:[라이트발드]	성공	[268701404]+5신성한 마법 방어 투구
2016-10-03 02:28:00	thsekaql123:[라이트발드]	성공	[268701405]+5신성한 마법 방어 투구
2016-10-03 02:28:22	thsekaql123:[라이트발드]	실패	[268701406]+4신성한 마법 방어 투구
2016-10-03 02:28:33	thsekaql123:[라이트발드]	실패	[268701390]+5신성한 마법 방어 투구
2016-10-03 02:28:34	thsekaql123:[라이트발드]	실패	[268701391]+5신성한 마법 방어 투구
2016-10-03 02:28:35	thsekaql123:[라이트발드]	실패	[268701394]+5신성한 마법 방어 투구
2016-10-03 02:28:36	thsekaql123:[라이트발드]	실패	[268701396]+5신성한 마법 방어 투구
2016-10-03 02:28:37	thsekaql123:[라이트발드]	성공	[268701397]+6신성한 마법 방어 투구
2016-10-03 02:28:39	thsekaql123:[라이트발드]	실패	[268701399]+5신성한 마법 방어 투구
2016-10-03 02:28:40	thsekaql123:[라이트발드]	실패	[268701404]+5신성한 마법 방어 투구
2016-10-03 02:28:42	thsekaql123:[라이트발드]	실패	[268701405]+5신성한 마법 방어 투구
2016-10-03 02:28:49	thsekaql123:[라이트발드]	실패	[268701397]+6신성한 마법 방어 투구
2016-10-03 02:28:55	xotqj11:[메티스]	실패	[268701496]+6신성한 마법 방어 투구
2016-10-03 02:28:55	xotqj11:[메티스]	실패	[268701495]+6신성한 마법 방어 투구
2016-10-03 02:28:56	xotqj11:[메티스]	실패	[268701494]+6신성한 마법 방어 투구
2016-10-03 02:28:56	xotqj11:[메티스]	실패	[268701493]+6신성한 마법 방어 투구
2016-10-03 02:28:57	xotqj11:[메티스]	실패	[268701492]+6신성한 마법 방어 투구
2016-10-03 02:28:57	xotqj11:[메티스]	실패	[268701491]+6신성한 마법 방어 투구
2016-10-03 02:28:58	xotqj11:[메티스]	성공	[268701490]+7신성한 마법 방어 투구
2016-10-03 02:28:58	xotqj11:[메티스]	실패	[268701489]+6신성한 마법 방어 투구
2016-10-03 02:28:59	xotqj11:[메티스]	실패	[268701488]+6신성한 마법 방어 투구
2016-10-03 02:28:59	xotqj11:[메티스]	실패	[268701487]+6신성한 마법 방어 투구
2016-10-03 02:29:00	xotqj11:[메티스]	실패	[268701486]+6신성한 마법 방어 투구
2016-10-03 02:29:01	xotqj11:[메티스]	실패	[268701485]+6신성한 마법 방어 투구
2016-10-03 02:29:01	xotqj11:[메티스]	성공	[268701484]+7신성한 마법 방어 투구
2016-10-03 02:29:02	xotqj11:[메티스]	실패	[268701483]+6신성한 마법 방어 투구
2016-10-03 02:29:03	xotqj11:[메티스]	실패	[268701482]+6신성한 마법 방어 투구
2016-10-03 02:29:03	xotqj11:[메티스]	실패	[268701481]+6신성한 마법 방어 투구
2016-10-03 02:29:04	xotqj11:[메티스]	실패	[268701480]+6신성한 마법 방어 투구
2016-10-03 02:29:04	xotqj11:[메티스]	실패	[268701479]+6신성한 마법 방어 투구
2016-10-03 02:29:05	xotqj11:[메티스]	실패	[268701478]+6신성한 마법 방어 투구
2016-10-03 02:29:05	xotqj11:[메티스]	실패	[268701477]+6신성한 마법 방어 투구
2016-10-03 02:29:06	thsekaql123:[라이트발드]	실패	[268701437]+5신성한 마법 방어 투구
2016-10-03 02:29:07	thsekaql123:[라이트발드]	실패	[268701438]+5신성한 마법 방어 투구
2016-10-03 02:29:08	thsekaql123:[라이트발드]	실패	[268701439]+5신성한 마법 방어 투구
2016-10-03 02:29:09	thsekaql123:[라이트발드]	실패	[268701440]+5신성한 마법 방어 투구
2016-10-03 02:29:10	thsekaql123:[라이트발드]	성공	[268701441]+6신성한 마법 방어 투구
2016-10-03 02:29:11	thsekaql123:[라이트발드]	실패	[268701442]+5신성한 마법 방어 투구
2016-10-03 02:29:12	thsekaql123:[라이트발드]	실패	[268701443]+5신성한 마법 방어 투구
2016-10-03 02:29:13	thsekaql123:[라이트발드]	실패	[268701444]+5신성한 마법 방어 투구
2016-10-03 02:29:14	thsekaql123:[라이트발드]	실패	[268701445]+5신성한 마법 방어 투구
2016-10-03 02:29:15	thsekaql123:[라이트발드]	실패	[268701446]+5신성한 마법 방어 투구
2016-10-03 02:29:16	thsekaql123:[라이트발드]	실패	[268701447]+5신성한 마법 방어 투구
2016-10-03 02:29:17	thsekaql123:[라이트발드]	실패	[268701448]+5신성한 마법 방어 투구
2016-10-03 02:29:18	thsekaql123:[라이트발드]	실패	[268701429]+5신성한 마법 방어 투구
2016-10-03 02:29:24	thsekaql123:[라이트발드]	실패	[268701441]+6신성한 마법 방어 투구
2016-10-03 02:30:13	xotqj11:[메티스]	성공	[268701490]+8신성한 마법 방어 투구
2016-10-03 02:30:14	xotqj11:[메티스]	실패	[268701484]+7신성한 마법 방어 투구
2016-10-03 02:30:33	thsekaql123:[라이트발드]	실패	[268701497]+6신성한 마법 방어 투구
2016-10-03 02:30:34	thsekaql123:[라이트발드]	실패	[268701498]+6신성한 마법 방어 투구
2016-10-03 02:30:36	thsekaql123:[라이트발드]	실패	[268701499]+6신성한 마법 방어 투구
2016-10-03 02:30:37	thsekaql123:[라이트발드]	실패	[268701500]+6신성한 마법 방어 투구
2016-10-03 02:30:38	thsekaql123:[라이트발드]	실패	[268701501]+6신성한 마법 방어 투구
2016-10-03 02:30:40	thsekaql123:[라이트발드]	실패	[268701502]+6신성한 마법 방어 투구
2016-10-03 02:30:41	thsekaql123:[라이트발드]	실패	[268701503]+6신성한 마법 방어 투구
2016-10-03 02:30:42	thsekaql123:[라이트발드]	실패	[268701504]+6신성한 마법 방어 투구
2016-10-03 02:30:43	thsekaql123:[라이트발드]	실패	[268701505]+6신성한 마법 방어 투구
2016-10-03 02:30:44	thsekaql123:[라이트발드]	성공	[268701506]+7신성한 마법 방어 투구
2016-10-03 02:31:00	thsekaql123:[라이트발드]	실패	[268701507]+6신성한 마법 방어 투구
2016-10-03 02:31:02	thsekaql123:[라이트발드]	성공	[268701508]+7신성한 마법 방어 투구
2016-10-03 02:31:03	thsekaql123:[라이트발드]	실패	[268701509]+6신성한 마법 방어 투구
2016-10-03 02:31:04	thsekaql123:[라이트발드]	실패	[268701510]+6신성한 마법 방어 투구
2016-10-03 02:31:06	thsekaql123:[라이트발드]	실패	[268701511]+6신성한 마법 방어 투구
2016-10-03 02:31:07	thsekaql123:[라이트발드]	실패	[268701512]+6신성한 마법 방어 투구
2016-10-03 02:31:08	thsekaql123:[라이트발드]	실패	[268701513]+6신성한 마법 방어 투구
2016-10-03 02:31:09	thsekaql123:[라이트발드]	실패	[268701514]+6신성한 마법 방어 투구
2016-10-03 02:31:10	thsekaql123:[라이트발드]	성공	[268701515]+7신성한 마법 방어 투구
2016-10-03 02:31:12	thsekaql123:[라이트발드]	성공	[268701516]+7신성한 마법 방어 투구
2016-10-03 02:31:24	shs544:[낭만]	실패	[268701531]+6신성한 마법 방어 투구
2016-10-03 02:31:25	shs544:[낭만]	실패	[268701530]+6신성한 마법 방어 투구
2016-10-03 02:31:25	shs544:[낭만]	실패	[268701532]+6신성한 마법 방어 투구
2016-10-03 02:31:26	shs544:[낭만]	실패	[268701533]+6신성한 마법 방어 투구
2016-10-03 02:31:27	shs544:[낭만]	실패	[268701534]+6신성한 마법 방어 투구
2016-10-03 02:31:27	shs544:[낭만]	실패	[268701535]+6신성한 마법 방어 투구
2016-10-03 02:31:28	shs544:[낭만]	실패	[268701536]+6신성한 마법 방어 투구
2016-10-03 02:31:29	shs544:[낭만]	실패	[268701537]+6신성한 마법 방어 투구
2016-10-03 02:31:29	shs544:[낭만]	실패	[268701538]+6신성한 마법 방어 투구
2016-10-03 02:31:30	shs544:[낭만]	성공	[268701539]+7신성한 마법 방어 투구
2016-10-03 02:31:31	shs544:[낭만]	실패	[268701540]+6신성한 마법 방어 투구
2016-10-03 02:31:31	shs544:[낭만]	실패	[268701541]+6신성한 마법 방어 투구
2016-10-03 02:31:32	shs544:[낭만]	실패	[268701542]+6신성한 마법 방어 투구
2016-10-03 02:31:33	shs544:[낭만]	실패	[268701543]+6신성한 마법 방어 투구
2016-10-03 02:31:33	shs544:[낭만]	실패	[268701544]+6신성한 마법 방어 투구
2016-10-03 02:31:34	shs544:[낭만]	실패	[268701545]+6신성한 마법 방어 투구
2016-10-03 02:31:35	shs544:[낭만]	실패	[268701546]+6신성한 마법 방어 투구
2016-10-03 02:31:35	shs544:[낭만]	성공	[268701547]+7신성한 마법 방어 투구
2016-10-03 02:31:36	shs544:[낭만]	성공	[268701548]+7신성한 마법 방어 투구
2016-10-03 02:31:38	shs544:[낭만]	실패	[268701549]+6신성한 마법 방어 투구
2016-10-03 02:31:47	shs544:[낭만]	실패	[268701539]+7신성한 마법 방어 투구
2016-10-03 02:31:48	shs544:[낭만]	실패	[268701547]+7신성한 마법 방어 투구
2016-10-03 02:31:49	shs544:[낭만]	실패	[268701548]+7신성한 마법 방어 투구
2016-10-03 02:31:51	thsekaql123:[라이트발드]	실패	[268701506]+7신성한 마법 방어 투구
2016-10-03 02:31:54	thsekaql123:[라이트발드]	실패	[268701516]+7신성한 마법 방어 투구
2016-10-03 02:31:55	thsekaql123:[라이트발드]	실패	[268701515]+7신성한 마법 방어 투구
2016-10-03 02:31:56	thsekaql123:[라이트발드]	실패	[268701508]+7신성한 마법 방어 투구
2016-10-03 02:32:49	thsekaql123:[라이트발드]	실패	[268701566]+7신성한 마법 방어 투구
2016-10-03 02:32:50	thsekaql123:[라이트발드]	실패	[268701567]+7신성한 마법 방어 투구
2016-10-03 02:32:51	thsekaql123:[라이트발드]	실패	[268701568]+7신성한 마법 방어 투구
2016-10-03 02:32:52	xotqj11:[메티스]	실패	[268701606]+7신성한 마법 방어 투구
2016-10-03 02:32:52	thsekaql123:[라이트발드]	실패	[268701569]+7신성한 마법 방어 투구
2016-10-03 02:32:53	xotqj11:[메티스]	실패	[268701607]+7신성한 마법 방어 투구
2016-10-03 02:32:53	thsekaql123:[라이트발드]	실패	[268701570]+7신성한 마법 방어 투구
2016-10-03 02:32:54	xotqj11:[메티스]	실패	[268701608]+7신성한 마법 방어 투구
2016-10-03 02:32:54	thsekaql123:[라이트발드]	실패	[268701571]+7신성한 마법 방어 투구
2016-10-03 02:32:55	xotqj11:[메티스]	실패	[268701609]+7신성한 마법 방어 투구
2016-10-03 02:32:55	xotqj11:[메티스]	실패	[268701610]+7신성한 마법 방어 투구
2016-10-03 02:32:56	thsekaql123:[라이트발드]	성공	[268701572]+8신성한 마법 방어 투구
2016-10-03 02:32:56	xotqj11:[메티스]	실패	[268701611]+7신성한 마법 방어 투구
2016-10-03 02:32:56	xotqj11:[메티스]	실패	[268701612]+7신성한 마법 방어 투구
2016-10-03 02:32:57	xotqj11:[메티스]	실패	[268701613]+7신성한 마법 방어 투구
2016-10-03 02:32:57	xotqj11:[메티스]	실패	[268701614]+7신성한 마법 방어 투구
2016-10-03 02:32:58	xotqj11:[메티스]	실패	[268701615]+7신성한 마법 방어 투구
2016-10-03 02:32:59	xotqj11:[메티스]	실패	[268701616]+7신성한 마법 방어 투구
2016-10-03 02:33:00	xotqj11:[메티스]	실패	[268701617]+7신성한 마법 방어 투구
2016-10-03 02:33:01	xotqj11:[메티스]	성공	[268701618]+8신성한 마법 방어 투구
2016-10-03 02:33:06	shs544:[낭만]	실패	[268701594]+7신성한 마법 방어 투구
2016-10-03 02:33:07	shs544:[낭만]	실패	[268701595]+7신성한 마법 방어 투구
2016-10-03 02:33:07	shs544:[낭만]	실패	[268701596]+7신성한 마법 방어 투구
2016-10-03 02:33:08	shs544:[낭만]	실패	[268701597]+7신성한 마법 방어 투구
2016-10-03 02:33:08	shs544:[낭만]	실패	[268701598]+7신성한 마법 방어 투구
2016-10-03 02:33:09	shs544:[낭만]	실패	[268701599]+7신성한 마법 방어 투구
2016-10-03 02:33:09	shs544:[낭만]	실패	[268701600]+7신성한 마법 방어 투구
2016-10-03 02:33:10	shs544:[낭만]	실패	[268701601]+7신성한 마법 방어 투구
2016-10-03 02:33:11	shs544:[낭만]	실패	[268701602]+7신성한 마법 방어 투구
2016-10-03 02:33:11	xotqj11:[메티스]	실패	[268701619]+7신성한 마법 방어 투구
2016-10-03 02:33:11	shs544:[낭만]	실패	[268701603]+7신성한 마법 방어 투구
2016-10-03 02:33:12	xotqj11:[메티스]	실패	[268701620]+7신성한 마법 방어 투구
2016-10-03 02:33:12	shs544:[낭만]	실패	[268701604]+7신성한 마법 방어 투구
2016-10-03 02:33:12	shs544:[낭만]	실패	[268701605]+7신성한 마법 방어 투구
2016-10-03 02:33:13	xotqj11:[메티스]	실패	[268701621]+7신성한 마법 방어 투구
2016-10-03 02:33:13	shs544:[낭만]	실패	[268701586]+7신성한 마법 방어 투구
2016-10-03 02:33:13	xotqj11:[메티스]	실패	[268701622]+7신성한 마법 방어 투구
2016-10-03 02:33:14	shs544:[낭만]	실패	[268701587]+7신성한 마법 방어 투구
2016-10-03 02:33:14	thsekaql123:[라이트발드]	실패	[268701573]+7신성한 마법 방어 투구
2016-10-03 02:33:14	xotqj11:[메티스]	실패	[268701623]+7신성한 마법 방어 투구
2016-10-03 02:33:14	shs544:[낭만]	실패	[268701588]+7신성한 마법 방어 투구
2016-10-03 02:33:15	xotqj11:[메티스]	실패	[268701624]+7신성한 마법 방어 투구
2016-10-03 02:33:15	thsekaql123:[라이트발드]	실패	[268701574]+7신성한 마법 방어 투구
2016-10-03 02:33:15	shs544:[낭만]	실패	[268701589]+7신성한 마법 방어 투구
2016-10-03 02:33:15	xotqj11:[메티스]	실패	[268701625]+7신성한 마법 방어 투구
2016-10-03 02:33:16	shs544:[낭만]	성공	[268701590]+8신성한 마법 방어 투구
2016-10-03 02:33:16	thsekaql123:[라이트발드]	실패	[268701575]+7신성한 마법 방어 투구
2016-10-03 02:33:17	shs544:[낭만]	실패	[268701591]+7신성한 마법 방어 투구
2016-10-03 02:33:17	thsekaql123:[라이트발드]	실패	[268701576]+7신성한 마법 방어 투구
2016-10-03 02:33:17	shs544:[낭만]	실패	[268701592]+7신성한 마법 방어 투구
2016-10-03 02:33:18	shs544:[낭만]	실패	[268701593]+7신성한 마법 방어 투구
2016-10-03 02:33:18	thsekaql123:[라이트발드]	실패	[268701577]+7신성한 마법 방어 투구
2016-10-03 02:33:19	thsekaql123:[라이트발드]	실패	[268701578]+7신성한 마법 방어 투구
2016-10-03 02:33:20	thsekaql123:[라이트발드]	실패	[268701579]+7신성한 마법 방어 투구
2016-10-03 02:33:21	thsekaql123:[라이트발드]	성공	[268701580]+8신성한 마법 방어 투구
2016-10-03 02:33:31	thsekaql123:[라이트발드]	실패	[268701581]+7신성한 마법 방어 투구
2016-10-03 02:33:33	thsekaql123:[라이트발드]	실패	[268701582]+7신성한 마법 방어 투구
2016-10-03 02:33:34	thsekaql123:[라이트발드]	실패	[268701583]+7신성한 마법 방어 투구
2016-10-03 02:33:35	thsekaql123:[라이트발드]	실패	[268701584]+7신성한 마법 방어 투구
2016-10-03 02:33:36	thsekaql123:[라이트발드]	성공	[268701585]+8신성한 마법 방어 투구
2016-10-03 02:33:57	thsekaql123:[라이트발드]	실패	[268701585]+8신성한 마법 방어 투구
2016-10-03 02:33:58	thsekaql123:[라이트발드]	실패	[268701580]+8신성한 마법 방어 투구
2016-10-03 02:33:59	thsekaql123:[라이트발드]	실패	[268701572]+8신성한 마법 방어 투구
2016-10-03 02:34:33	thsekaql123:[라이트발드]	실패	[268701632]+8신성한 마법 방어 투구
2016-10-03 02:34:34	thsekaql123:[라이트발드]	실패	[268701633]+8신성한 마법 방어 투구
2016-10-03 02:34:35	thsekaql123:[라이트발드]	실패	[268701634]+8신성한 마법 방어 투구
2016-10-03 02:34:36	thsekaql123:[라이트발드]	실패	[268701635]+8신성한 마법 방어 투구
2016-10-03 02:34:37	xotqj11:[메티스]	실패	[268701618]+8신성한 마법 방어 투구
2016-10-03 02:34:37	xotqj11:[메티스]	실패	[268701690]+8신성한 마법 방어 투구
2016-10-03 02:34:37	thsekaql123:[라이트발드]	실패	[268701636]+8신성한 마법 방어 투구
2016-10-03 02:34:38	xotqj11:[메티스]	실패	[268701689]+8신성한 마법 방어 투구
2016-10-03 02:34:39	xotqj11:[메티스]	실패	[268701688]+8신성한 마법 방어 투구
2016-10-03 02:34:39	thsekaql123:[라이트발드]	성공	[268701637]+9신성한 마법 방어 투구
2016-10-03 02:34:39	xotqj11:[메티스]	실패	[268701687]+8신성한 마법 방어 투구
2016-10-03 02:34:40	xotqj11:[메티스]	실패	[268701686]+8신성한 마법 방어 투구
2016-10-03 02:34:40	xotqj11:[메티스]	실패	[268701672]+8신성한 마법 방어 투구
2016-10-03 02:34:41	xotqj11:[메티스]	실패	[268701673]+8신성한 마법 방어 투구
2016-10-03 02:34:42	xotqj11:[메티스]	실패	[268701674]+8신성한 마법 방어 투구
2016-10-03 02:34:43	xotqj11:[메티스]	실패	[268701675]+8신성한 마법 방어 투구
2016-10-03 02:34:44	xotqj11:[메티스]	실패	[268701676]+8신성한 마법 방어 투구
2016-10-03 02:34:44	xotqj11:[메티스]	실패	[268701677]+8신성한 마법 방어 투구
2016-10-03 02:34:45	xotqj11:[메티스]	실패	[268701678]+8신성한 마법 방어 투구
2016-10-03 02:34:46	xotqj11:[메티스]	실패	[268701679]+8신성한 마법 방어 투구
2016-10-03 02:34:47	xotqj11:[메티스]	실패	[268701680]+8신성한 마법 방어 투구
2016-10-03 02:34:48	xotqj11:[메티스]	실패	[268701681]+8신성한 마법 방어 투구
2016-10-03 02:34:49	xotqj11:[메티스]	실패	[268701682]+8신성한 마법 방어 투구
2016-10-03 02:34:50	xotqj11:[메티스]	실패	[268701683]+8신성한 마법 방어 투구
2016-10-03 02:34:50	xotqj11:[메티스]	실패	[268701684]+8신성한 마법 방어 투구
2016-10-03 02:34:51	xotqj11:[메티스]	실패	[268701685]+8신성한 마법 방어 투구
2016-10-03 02:34:56	shs544:[낭만]	실패	[268701590]+8신성한 마법 방어 투구
2016-10-03 02:34:57	shs544:[낭만]	실패	[268701652]+8신성한 마법 방어 투구
2016-10-03 02:34:58	shs544:[낭만]	실패	[268701653]+8신성한 마법 방어 투구
2016-10-03 02:34:59	shs544:[낭만]	실패	[268701654]+8신성한 마법 방어 투구
2016-10-03 02:34:59	shs544:[낭만]	실패	[268701655]+8신성한 마법 방어 투구
2016-10-03 02:35:00	shs544:[낭만]	실패	[268701656]+8신성한 마법 방어 투구
2016-10-03 02:35:01	shs544:[낭만]	실패	[268701657]+8신성한 마법 방어 투구
2016-10-03 02:35:01	shs544:[낭만]	실패	[268701658]+8신성한 마법 방어 투구
2016-10-03 02:35:02	shs544:[낭만]	실패	[268701659]+8신성한 마법 방어 투구
2016-10-03 02:35:03	shs544:[낭만]	실패	[268701660]+8신성한 마법 방어 투구
2016-10-03 02:35:06	shs544:[낭만]	실패	[268701661]+8신성한 마법 방어 투구
2016-10-03 02:35:06	shs544:[낭만]	실패	[268701662]+8신성한 마법 방어 투구
2016-10-03 02:35:07	shs544:[낭만]	실패	[268701663]+8신성한 마법 방어 투구
2016-10-03 02:35:08	shs544:[낭만]	실패	[268701664]+8신성한 마법 방어 투구
2016-10-03 02:35:08	shs544:[낭만]	실패	[268701665]+8신성한 마법 방어 투구
2016-10-03 02:35:09	shs544:[낭만]	실패	[268701666]+8신성한 마법 방어 투구
2016-10-03 02:35:10	shs544:[낭만]	실패	[268701667]+8신성한 마법 방어 투구
2016-10-03 02:35:10	shs544:[낭만]	실패	[268701668]+8신성한 마법 방어 투구
2016-10-03 02:35:11	shs544:[낭만]	실패	[268701669]+8신성한 마법 방어 투구
2016-10-03 02:35:12	shs544:[낭만]	실패	[268701671]+8신성한 마법 방어 투구
2016-10-03 02:35:20	thsekaql123:[라이트발드]	실패	[268701638]+8신성한 마법 방어 투구
2016-10-03 02:35:21	thsekaql123:[라이트발드]	실패	[268701639]+8신성한 마법 방어 투구
2016-10-03 02:35:22	thsekaql123:[라이트발드]	실패	[268701640]+8신성한 마법 방어 투구
2016-10-03 02:35:23	thsekaql123:[라이트발드]	실패	[268701641]+8신성한 마법 방어 투구
2016-10-03 02:35:24	thsekaql123:[라이트발드]	실패	[268701642]+8신성한 마법 방어 투구
2016-10-03 02:35:25	thsekaql123:[라이트발드]	실패	[268701643]+8신성한 마법 방어 투구
2016-10-03 02:35:26	thsekaql123:[라이트발드]	실패	[268701644]+8신성한 마법 방어 투구
2016-10-03 02:35:27	thsekaql123:[라이트발드]	실패	[268701645]+8신성한 마법 방어 투구
2016-10-03 02:35:28	thsekaql123:[라이트발드]	성공	[268701646]+9신성한 마법 방어 투구
2016-10-03 02:35:32	thsekaql123:[라이트발드]	실패	[268701647]+8신성한 마법 방어 투구
2016-10-03 02:35:33	thsekaql123:[라이트발드]	실패	[268701648]+8신성한 마법 방어 투구
2016-10-03 02:35:35	thsekaql123:[라이트발드]	성공	[268701649]+9신성한 마법 방어 투구
2016-10-03 02:35:40	thsekaql123:[라이트발드]	실패	[268701650]+8신성한 마법 방어 투구
2016-10-03 02:35:41	thsekaql123:[라이트발드]	실패	[268701651]+8신성한 마법 방어 투구
2016-10-03 02:37:34	xotqj11:[메티스]	실패	[268701693]+8신성한 마법 방어 투구
2016-10-03 02:37:35	xotqj11:[메티스]	실패	[268701694]+8신성한 마법 방어 투구
2016-10-03 02:37:36	xotqj11:[메티스]	실패	[268701695]+8신성한 마법 방어 투구
2016-10-03 02:37:37	xotqj11:[메티스]	실패	[268701696]+8신성한 마법 방어 투구
2016-10-03 02:37:37	xotqj11:[메티스]	실패	[268701697]+8신성한 마법 방어 투구
2016-10-03 02:37:38	xotqj11:[메티스]	실패	[268701698]+8신성한 마법 방어 투구
2016-10-03 02:37:39	xotqj11:[메티스]	실패	[268701699]+8신성한 마법 방어 투구
2016-10-03 02:37:40	xotqj11:[메티스]	실패	[268701700]+8신성한 마법 방어 투구
2016-10-03 02:37:41	xotqj11:[메티스]	실패	[268701701]+8신성한 마법 방어 투구
2016-10-03 02:37:42	xotqj11:[메티스]	성공	[268701702]+9신성한 마법 방어 투구
2016-10-03 02:37:49	xotqj11:[메티스]	실패	[268701703]+8신성한 마법 방어 투구
2016-10-03 02:37:49	xotqj11:[메티스]	성공	[268701704]+9신성한 마법 방어 투구
2016-10-03 02:37:52	xotqj11:[메티스]	실패	[268701705]+8신성한 마법 방어 투구
2016-10-03 02:37:53	xotqj11:[메티스]	실패	[268701706]+8신성한 마법 방어 투구
2016-10-03 02:37:54	xotqj11:[메티스]	실패	[268701707]+8신성한 마법 방어 투구
2016-10-03 02:37:55	xotqj11:[메티스]	실패	[268701708]+8신성한 마법 방어 투구
2016-10-03 02:37:55	xotqj11:[메티스]	실패	[268701709]+8신성한 마법 방어 투구
2016-10-03 02:37:56	xotqj11:[메티스]	실패	[268701710]+8신성한 마법 방어 투구
2016-10-03 02:37:57	xotqj11:[메티스]	실패	[268701713]+8신성한 마법 방어 투구
2016-10-03 02:37:58	xotqj11:[메티스]	실패	[268701714]+8신성한 마법 방어 투구
2016-10-03 02:38:22	shs544:[낭만]	실패	[268701711]+8신성한 마법 방어 투구
2016-10-03 02:38:23	shs544:[낭만]	실패	[268701712]+8신성한 마법 방어 투구
2016-10-03 02:38:23	shs544:[낭만]	실패	[268701715]+8신성한 마법 방어 투구
2016-10-03 02:38:24	shs544:[낭만]	성공	[268701717]+9신성한 마법 방어 투구
2016-10-03 02:38:26	shs544:[낭만]	실패	[268701716]+8신성한 마법 방어 투구
2016-10-03 02:38:26	shs544:[낭만]	실패	[268701718]+8신성한 마법 방어 투구
2016-10-03 02:38:27	shs544:[낭만]	실패	[268701719]+8신성한 마법 방어 투구
2016-10-03 02:38:28	shs544:[낭만]	실패	[268701720]+8신성한 마법 방어 투구
2016-10-03 02:38:28	shs544:[낭만]	실패	[268701721]+8신성한 마법 방어 투구
2016-10-03 02:38:29	shs544:[낭만]	실패	[268701722]+8신성한 마법 방어 투구
2016-10-03 02:38:30	shs544:[낭만]	실패	[268701723]+8신성한 마법 방어 투구
2016-10-03 02:38:30	shs544:[낭만]	실패	[268701724]+8신성한 마법 방어 투구
2016-10-03 02:38:31	shs544:[낭만]	실패	[268701725]+8신성한 마법 방어 투구
2016-10-03 02:38:32	shs544:[낭만]	실패	[268701726]+8신성한 마법 방어 투구
2016-10-03 02:38:32	shs544:[낭만]	실패	[268701727]+8신성한 마법 방어 투구
2016-10-03 02:38:33	shs544:[낭만]	실패	[268701728]+8신성한 마법 방어 투구
2016-10-03 02:38:34	shs544:[낭만]	실패	[268701729]+8신성한 마법 방어 투구
2016-10-03 02:38:35	shs544:[낭만]	실패	[268701730]+8신성한 마법 방어 투구
2016-10-03 02:38:35	shs544:[낭만]	실패	[268701733]+8신성한 마법 방어 투구
2016-10-03 02:38:36	shs544:[낭만]	실패	[268701734]+8신성한 마법 방어 투구
2016-10-03 02:38:46	thsekaql123:[라이트발드]	성공	[268701731]+9신성한 마법 방어 투구
2016-10-03 02:39:01	thsekaql123:[라이트발드]	실패	[268701732]+8신성한 마법 방어 투구
2016-10-03 02:39:02	thsekaql123:[라이트발드]	실패	[268701735]+8신성한 마법 방어 투구
2016-10-03 02:39:03	thsekaql123:[라이트발드]	실패	[268701736]+8신성한 마법 방어 투구
2016-10-03 02:39:04	thsekaql123:[라이트발드]	실패	[268701745]+8신성한 마법 방어 투구
2016-10-03 02:39:05	thsekaql123:[라이트발드]	실패	[268701746]+8신성한 마법 방어 투구
2016-10-03 02:39:06	thsekaql123:[라이트발드]	실패	[268701747]+8신성한 마법 방어 투구
2016-10-03 02:39:07	thsekaql123:[라이트발드]	실패	[268701748]+8신성한 마법 방어 투구
2016-10-03 02:39:09	thsekaql123:[라이트발드]	실패	[268701749]+8신성한 마법 방어 투구
2016-10-03 02:39:09	thsekaql123:[라이트발드]	실패	[268701750]+8신성한 마법 방어 투구
2016-10-03 02:39:10	thsekaql123:[라이트발드]	실패	[268701751]+8신성한 마법 방어 투구
2016-10-03 02:39:11	thsekaql123:[라이트발드]	실패	[268701752]+8신성한 마법 방어 투구
2016-10-03 02:39:12	thsekaql123:[라이트발드]	실패	[268701737]+8신성한 마법 방어 투구
2016-10-03 02:39:13	thsekaql123:[라이트발드]	실패	[268701738]+8신성한 마법 방어 투구
2016-10-03 02:39:14	thsekaql123:[라이트발드]	실패	[268701739]+8신성한 마법 방어 투구
2016-10-03 02:39:15	thsekaql123:[라이트발드]	실패	[268701740]+8신성한 마법 방어 투구
2016-10-03 02:39:16	thsekaql123:[라이트발드]	실패	[268701741]+8신성한 마법 방어 투구
2016-10-03 02:39:17	thsekaql123:[라이트발드]	실패	[268701742]+8신성한 마법 방어 투구
2016-10-03 02:39:19	thsekaql123:[라이트발드]	실패	[268701743]+8신성한 마법 방어 투구
2016-10-03 02:39:20	thsekaql123:[라이트발드]	실패	[268701744]+8신성한 마법 방어 투구
2016-10-03 02:45:41	thsekaql123:[라이트발드]	실패	[268701731]+9신성한 마법 방어 투구
2016-10-03 02:45:42	thsekaql123:[라이트발드]	실패	[268701637]+9신성한 마법 방어 투구
2016-10-03 02:45:46	thsekaql123:[라이트발드]	실패	[268701649]+9신성한 마법 방어 투구
2016-10-03 02:45:47	thsekaql123:[라이트발드]	실패	[268701646]+9신성한 마법 방어 투구
2016-10-03 02:45:54	thsekaql123:[라이트발드]	실패	[268701717]+9신성한 마법 방어 투구
2016-10-03 03:21:13	shs544:[낭만]	성공	[268727005]+5전사단 투구
2016-10-03 03:21:14	shs544:[낭만]	실패	[268727005]+5전사단 투구
