2017-04-01 03:26:45	외침	[하하]	누구세요
2017-04-01 03:26:59	외침	[하하]	누구
2017-04-01 03:27:07	외침	[다덤벼]	1?
2017-04-01 03:27:10	외침	[하하]	?
2017-04-01 03:27:12	외침	[하하]	누구?
2017-04-01 03:27:13	외침	[다덤벼]	오늘 처음옴
2017-04-01 03:27:19	외침	[하하]	어떡게
2017-04-01 03:27:20	외침	[하하]	접속하심
2017-04-01 03:27:35	외침	[하하]	혹시
2017-04-01 03:27:37	외침	[하하]	안개섭
2017-04-01 03:27:40	외침	[하하]	접속하신거?
2017-04-01 03:28:10	외침	[하하]	안개섭 홈피 가서 다시 받으세요
2017-04-01 03:28:14	외침	[하하]	여긴 안개섭이랑 별개라
2017-04-01 03:28:18	외침	[하하]	벤할게요 ㅋ
