2016-11-29 11:21:40	접속 캐릭=냐냐냐	계정=mbcznvx	IP=127.0.0.1
2016-11-29 11:22:17	종료 캐릭=냐냐냐 계정=mbcznvx IP=127.0.0.1
2016-11-29 11:22:19	접속 캐릭=나다	계정=mbcznvx	IP=127.0.0.1
2016-11-29 11:22:22	종료 캐릭=나다 계정=mbcznvx IP=127.0.0.1
2016-11-29 11:22:23	접속 캐릭=메티스	계정=mbcznvx	IP=127.0.0.1
2016-11-29 11:22:50	종료 캐릭=메티스 계정=mbcznvx IP=127.0.0.1
2016-11-29 11:22:53	접속 캐릭=냐냐냐	계정=mbcznvx	IP=127.0.0.1
2016-11-29 11:24:45	종료 캐릭=냐냐냐 계정=mbcznvx IP=127.0.0.1
2016-11-29 11:24:48	접속 캐릭=메티스	계정=mbcznvx	IP=127.0.0.1
2016-11-29 11:27:50	접속 캐릭=크크	계정=mbcznvx	IP=127.0.0.1
2016-11-29 11:28:35	종료 캐릭=크크 계정=mbcznvx IP=127.0.0.1
2016-11-29 11:28:38	접속 캐릭=냐냐냐	계정=mbcznvx	IP=127.0.0.1
2016-11-29 11:33:24	접속 캐릭=메티스	계정=mbcznvx	IP=127.0.0.1
2016-11-29 11:36:36	종료 캐릭=메티스 계정=mbcznvx IP=127.0.0.1
2016-11-29 12:48:31	접속 캐릭=메티스	계정=mbcznvx	IP=127.0.0.1
