2016-11-30 01:11:40	접속 캐릭=멧	계정=matis	IP=175.205.201.146
2016-11-30 01:13:26	접속 캐릭=텟	계정=matis2	IP=175.205.201.146
2016-11-30 01:15:38	종료 캐릭=텟 계정=matis2 IP=175.205.201.146
2016-11-30 01:16:07	접속 캐릭=텟	계정=matis2	IP=175.205.201.146
2016-11-30 01:19:51	종료 캐릭=멧 계정=matis IP=175.205.201.146
2016-11-30 01:20:29	접속 캐릭=멧	계정=matis	IP=175.205.201.146
2016-11-30 01:20:51	종료 캐릭=멧 계정=matis IP=175.205.201.146
2016-11-30 01:21:21	접속 캐릭=멧	계정=matis	IP=175.205.201.146
2016-11-30 01:22:02	종료 캐릭=멧 계정=matis IP=175.205.201.146
2016-11-30 01:22:21	접속 캐릭=멧	계정=matis	IP=175.205.201.146
2016-11-30 01:22:57	종료 캐릭=멧 계정=matis IP=175.205.201.146
2016-11-30 01:23:21	접속 캐릭=멧	계정=matis	IP=175.205.201.146
2016-11-30 01:23:49	종료 캐릭=멧 계정=matis IP=175.205.201.146
2016-11-30 01:24:09	접속 캐릭=멧	계정=matis	IP=175.205.201.146
2016-11-30 01:24:39	종료 캐릭=멧 계정=matis IP=175.205.201.146
2016-11-30 01:25:04	접속 캐릭=멧	계정=matis	IP=175.205.201.146
2016-11-30 01:39:27	종료 캐릭=멧 계정=matis IP=175.205.201.146
2016-11-30 01:39:35	종료 캐릭=텟 계정=matis2 IP=175.205.201.146
2016-11-30 01:42:56	접속 캐릭=텟	계정=matis2	IP=175.205.201.146
2016-11-30 01:42:57	접속 캐릭=멧	계정=matis	IP=175.205.201.146
2016-11-30 01:44:43	종료 캐릭=텟 계정=matis2 IP=175.205.201.146
2016-11-30 01:53:00	접속 캐릭=텟	계정=matis2	IP=175.205.201.146
2016-11-30 01:54:37	종료 캐릭=멧 계정=matis IP=175.205.201.146
2016-11-30 01:56:31	종료 캐릭=텟 계정=matis2 IP=175.205.201.146
2016-11-30 01:57:02	접속 캐릭=멧	계정=matis	IP=175.205.201.146
2016-11-30 01:57:14	종료 캐릭=멧 계정=matis IP=175.205.201.146
2016-11-30 02:00:20	접속 캐릭=멧	계정=matis	IP=175.205.201.146
2016-11-30 02:00:31	종료 캐릭=멧 계정=matis IP=175.205.201.146
2016-11-30 02:03:14	접속 캐릭=멧	계정=matis	IP=175.205.201.146
2016-11-30 02:03:24	종료 캐릭=멧 계정=matis IP=175.205.201.146
2016-11-30 02:04:45	접속 캐릭=맷	계정=matis	IP=175.205.201.146
2016-11-30 02:05:49	접속 캐릭=텟	계정=matis2	IP=175.205.201.146
2016-11-30 02:16:39	접속 캐릭=맷	계정=matis	IP=175.205.201.146
2016-11-30 02:16:53	접속 캐릭=텟	계정=matis2	IP=175.205.201.146
2016-11-30 04:21:38	접속 캐릭=맷	계정=matis	IP=175.205.201.146
2016-11-30 04:25:22	접속 캐릭=맷	계정=matis	IP=175.205.201.146
2016-11-30 04:36:37	접속 캐릭=맷	계정=matis	IP=175.205.201.146
2016-11-30 04:45:24	접속 캐릭=맷	계정=matis	IP=175.205.201.146
2016-11-30 04:49:45	접속 캐릭=맷	계정=matis	IP=175.205.201.146
2016-11-30 05:02:18	접속 캐릭=맷	계정=matis	IP=175.205.201.146
2016-11-30 05:08:30	접속 캐릭=맷	계정=matis	IP=175.205.201.146
2016-11-30 05:11:11	접속 캐릭=맷	계정=matis	IP=175.205.201.146
2016-11-30 05:14:54	접속 캐릭=맷	계정=matis	IP=175.205.201.146
2016-11-30 05:19:47	접속 캐릭=맷	계정=matis	IP=175.205.201.146
2016-11-30 05:21:22	접속 캐릭=맷	계정=matis	IP=175.205.201.146
2016-11-30 05:36:39	접속 캐릭=맷	계정=matis	IP=175.205.201.146
2016-11-30 05:37:44	종료 캐릭=맷 계정=matis IP=175.205.201.146
2016-11-30 06:32:28	접속 캐릭=맷	계정=matis	IP=175.205.201.146
2016-11-30 06:58:27	접속 캐릭=맷	계정=matis	IP=175.205.201.146
2016-11-30 06:59:12	종료 캐릭=맷 계정=matis IP=175.205.201.146
2016-11-30 06:59:57	접속 캐릭=맷	계정=matis	IP=175.205.201.146
2016-11-30 07:00:48	종료 캐릭=맷 계정=matis IP=175.205.201.146
2016-11-30 07:00:53	접속 캐릭=맷	계정=matis	IP=175.205.201.146
2016-11-30 07:01:03	종료 캐릭=맷 계정=matis IP=175.205.201.146
2016-11-30 07:22:26	접속 캐릭=맷	계정=matis	IP=175.205.201.146
2016-11-30 07:22:52	종료 캐릭=맷 계정=matis IP=175.205.201.146
2016-11-30 07:24:50	접속 캐릭=맷	계정=matis	IP=175.205.201.146
2016-11-30 07:25:29	종료 캐릭=맷 계정=matis IP=175.205.201.146
2016-11-30 07:37:05	접속 캐릭=멧	계정=matis	IP=175.205.201.146
2016-11-30 07:38:09	종료 캐릭=멧 계정=matis IP=175.205.201.146
2016-11-30 07:41:22	접속 캐릭=코	계정=matis	IP=175.205.201.146
2016-11-30 07:57:27	접속 캐릭=끝	계정=matis	IP=175.205.201.146
2016-11-30 08:00:11	접속 캐릭=끝	계정=matis	IP=175.205.201.146
2016-11-30 08:04:52	접속 캐릭=끝	계정=matis	IP=175.205.201.146
2016-11-30 08:16:01	접속 캐릭=끝	계정=matis	IP=175.205.201.146
2016-11-30 08:21:57	접속 캐릭=끝	계정=matis	IP=175.205.201.146
2016-11-30 17:57:56	접속 캐릭=끝	계정=matis	IP=175.205.201.146
2016-11-30 18:00:19	접속 캐릭=끝	계정=matis	IP=175.205.201.146
2016-11-30 18:00:51	종료 캐릭=끝 계정=matis IP=175.205.201.146
2016-11-30 18:00:56	접속 캐릭=끝	계정=matis	IP=175.205.201.146
2016-11-30 18:18:14	접속 캐릭=끝	계정=matis	IP=175.205.201.146
2016-11-30 18:19:57	접속 캐릭=끝	계정=matis	IP=175.205.201.146
2016-11-30 18:20:28	종료 캐릭=끝 계정=matis IP=175.205.201.146
2016-11-30 19:48:30	접속 캐릭=끝	계정=matis	IP=175.205.201.146
2016-11-30 19:55:57	종료 캐릭=끝 계정=matis IP=175.205.201.146
2016-11-30 19:58:30	접속 캐릭=끝	계정=matis	IP=175.205.201.146
2016-11-30 20:01:21	종료 캐릭=끝 계정=matis IP=175.205.201.146
2016-11-30 22:55:26	접속 캐릭=끝	계정=matis	IP=175.205.201.146
2016-11-30 22:56:05	종료 캐릭=끝 계정=matis IP=175.205.201.146
2016-11-30 22:58:53	접속 캐릭=끝	계정=matis	IP=175.205.201.146
2016-11-30 23:01:10	종료 캐릭=끝 계정=matis IP=175.205.201.146
2016-11-30 23:07:20	접속 캐릭=끝	계정=matis	IP=175.205.201.146
2016-11-30 23:38:07	접속 캐릭=끝	계정=matis	IP=175.205.201.146
2016-11-30 23:39:20	종료 캐릭=끝 계정=matis IP=175.205.201.146
