2016-10-01 00:11:14	종료 캐릭=미 계정=kokoa1 IP=58.236.41.26
2016-10-01 00:11:16	접속 캐릭=꼬요정	계정=kokoa1	IP=58.236.41.26
2016-10-01 00:11:20	종료 캐릭=꼬요정 계정=kokoa1 IP=58.236.41.26
2016-10-01 00:11:24	접속 캐릭=꼬미	계정=kokoa1	IP=58.236.41.26
2016-10-01 00:22:02	접속 캐릭=포카드	계정=cjstk0102	IP=61.85.98.139
2016-10-01 00:22:38	접속 캐릭=봄	계정=tydtyd2	IP=1.176.33.3
2016-10-01 00:35:02	접속 캐릭=군주	계정=wjsdlf1	IP=121.147.218.65
2016-10-01 00:40:20	종료 캐릭=군주 계정=wjsdlf1 IP=121.147.218.65
2016-10-01 00:42:50	접속 캐릭=군주	계정=wjsdlf1	IP=121.147.218.65
2016-10-01 00:44:29	종료 캐릭=군주 계정=wjsdlf1 IP=121.147.218.65
2016-10-01 00:44:34	접속 캐릭=군주	계정=wjsdlf1	IP=121.147.218.65
2016-10-01 00:44:56	접속 캐릭=관우	계정=minwok2824	IP=1.242.212.205
2016-10-01 00:45:53	종료 캐릭=테르 계정=wjsdlf IP=121.147.218.65
2016-10-01 00:46:32	접속 캐릭=용기사	계정=wjsdlf	IP=121.147.218.65
2016-10-01 00:47:11	종료 캐릭=군주 계정=wjsdlf1 IP=121.147.218.65
2016-10-01 00:48:51	종료 캐릭=관우 계정=minwok2824 IP=1.242.212.205
2016-10-01 00:49:31	접속 캐릭=관우	계정=minwok2824	IP=1.242.212.205
2016-10-01 01:00:56	종료 캐릭=경험치 계정=thsekaql123 IP=218.236.45.215
2016-10-01 01:03:13	종료 캐릭=관우 계정=minwok2824 IP=1.242.212.205
2016-10-01 01:03:52	종료 캐릭=봄 계정=tydtyd2 IP=1.176.33.3
2016-10-01 01:03:59	접속 캐릭=유비	계정=minwok2824	IP=1.242.212.205
2016-10-01 01:05:06	종료 캐릭=유비 계정=minwok2824 IP=1.242.212.205
2016-10-01 01:05:08	접속 캐릭=관우	계정=minwok2824	IP=1.242.212.205
2016-10-01 01:05:16	종료 캐릭=도끼 계정=dlwowls4455 IP=61.85.98.140
2016-10-01 01:26:31	종료 캐릭=관우 계정=minwok2824 IP=1.242.212.205
2016-10-01 01:46:02	접속 캐릭=관우	계정=minwok2824	IP=1.242.212.205
2016-10-01 01:54:24	접속 캐릭=포카드	계정=cjstk0102	IP=61.85.98.139
2016-10-01 01:54:33	접속 캐릭=용기사	계정=wjsdlf	IP=121.147.218.65
2016-10-01 01:54:37	접속 캐릭=관우	계정=minwok2824	IP=1.242.212.205
2016-10-01 01:54:58	접속 캐릭=메티스	계정=xotqj11	IP=192.168.0.1
2016-10-01 01:55:08	접속 캐릭=소유	계정=hoan27	IP=61.40.201.60
2016-10-01 01:55:26	접속 캐릭=환술사	계정=wjsdlf1	IP=121.147.218.65
2016-10-01 01:56:46	접속 캐릭=꼬미	계정=kokoa1	IP=58.236.41.26
2016-10-01 01:59:08	종료 캐릭=메티스 계정=xotqj11 IP=192.168.0.1
2016-10-01 01:59:13	접속 캐릭=메티스	계정=xotqj11	IP=192.168.0.1
2016-10-01 02:07:11	종료 캐릭=관우 계정=minwok2824 IP=1.242.212.205
2016-10-01 02:07:13	접속 캐릭=유비	계정=minwok2824	IP=1.242.212.205
2016-10-01 02:14:02	종료 캐릭=유비 계정=minwok2824 IP=1.242.212.205
2016-10-01 02:14:04	접속 캐릭=관우	계정=minwok2824	IP=1.242.212.205
2016-10-01 02:16:45	종료 캐릭=용기사 계정=wjsdlf IP=121.147.218.65
2016-10-01 02:17:34	접속 캐릭=관우	계정=minwok2824	IP=1.242.212.205
2016-10-01 02:17:36	접속 캐릭=포카드	계정=cjstk0102	IP=61.85.98.139
2016-10-01 02:17:40	접속 캐릭=환술사	계정=wjsdlf1	IP=121.147.218.65
2016-10-01 02:17:46	접속 캐릭=메티스	계정=xotqj11	IP=192.168.0.1
2016-10-01 02:18:06	접속 캐릭=꼬미	계정=kokoa1	IP=58.236.41.26
2016-10-01 02:18:18	접속 캐릭=소유	계정=hoan27	IP=61.40.201.60
2016-10-01 02:21:03	종료 캐릭=관우 계정=minwok2824 IP=1.242.212.205
2016-10-01 02:21:08	접속 캐릭=관우	계정=minwok2824	IP=1.242.212.205
2016-10-01 02:28:42	종료 캐릭=환술사 계정=wjsdlf1 IP=121.147.218.65
2016-10-01 02:28:56	접속 캐릭=다크엘프	계정=wjsdlf1	IP=121.147.218.65
2016-10-01 02:29:35	접속 캐릭=용기사	계정=wjsdlf	IP=121.147.218.65
2016-10-01 02:33:13	종료 캐릭=용기사 계정=wjsdlf IP=121.147.218.65
2016-10-01 02:33:36	접속 캐릭=유나	계정=rhal11	IP=121.147.218.65
2016-10-01 02:33:36	종료 캐릭=유나 계정=rhal11 IP=121.147.218.65
2016-10-01 02:34:06	접속 캐릭=유나	계정=rhal11	IP=121.147.218.65
2016-10-01 02:36:19	종료 캐릭=유나 계정=rhal11 IP=121.147.218.65
2016-10-01 02:51:31	종료 캐릭=포카드 계정=cjstk0102 IP=61.85.98.139
2016-10-01 02:54:01	종료 캐릭=다크엘프 계정=wjsdlf1 IP=121.147.218.65
2016-10-01 02:54:11	접속 캐릭=용기사	계정=wjsdlf	IP=121.147.218.65
2016-10-01 02:54:31	종료 캐릭=소유 계정=hoan27 IP=61.40.201.60
2016-10-01 03:03:01	종료 캐릭=꼬미 계정=kokoa1 IP=58.236.41.26
2016-10-01 03:03:18	접속 캐릭=환술사	계정=wjsdlf1	IP=121.147.218.65
2016-10-01 03:03:40	종료 캐릭=환술사 계정=wjsdlf1 IP=121.147.218.65
2016-10-01 03:03:43	접속 캐릭=군주	계정=wjsdlf1	IP=121.147.218.65
2016-10-01 03:04:02	종료 캐릭=군주 계정=wjsdlf1 IP=121.147.218.65
2016-10-01 03:10:26	종료 캐릭=용기사 계정=wjsdlf IP=121.147.218.65
2016-10-01 03:24:08	접속 캐릭=메티스	계정=xotqj11	IP=192.168.0.1
2016-10-01 03:31:08	접속 캐릭=메티스	계정=xotqj11	IP=192.168.0.1
2016-10-01 03:44:32	접속 캐릭=메티스	계정=xotqj11	IP=192.168.0.1
2016-10-01 03:51:59	접속 캐릭=메티스	계정=xotqj11	IP=192.168.0.1
2016-10-01 03:57:23	접속 캐릭=메티스	계정=xotqj11	IP=192.168.0.1
2016-10-01 04:00:38	접속 캐릭=메티스	계정=xotqj11	IP=192.168.0.1
2016-10-01 04:08:01	접속 캐릭=메티스	계정=xotqj11	IP=192.168.0.1
2016-10-01 04:34:27	접속 캐릭=메티스	계정=xotqj11	IP=192.168.0.1
2016-10-01 04:39:55	접속 캐릭=메티스	계정=xotqj11	IP=192.168.0.1
2016-10-01 04:47:10	접속 캐릭=메티스	계정=xotqj11	IP=192.168.0.1
2016-10-01 04:49:43	접속 캐릭=메티스	계정=xotqj11	IP=192.168.0.1
2016-10-01 05:22:55	접속 캐릭=메티스	계정=xotqj11	IP=192.168.0.1
2016-10-01 05:37:04	접속 캐릭=메티스	계정=xotqj11	IP=192.168.0.1
2016-10-01 06:09:22	접속 캐릭=메티스	계정=xotqj11	IP=192.168.0.1
2016-10-01 06:35:36	종료 캐릭=메티스 계정=xotqj11 IP=192.168.0.1
2016-10-01 06:37:34	접속 캐릭=메티스	계정=xotqj11	IP=192.168.0.1
2016-10-01 08:37:04	접속 캐릭=관우	계정=minwok2824	IP=1.242.212.205
2016-10-01 08:38:38	접속 캐릭=미소피아	계정=shs544	IP=218.148.171.173
2016-10-01 08:43:38	종료 캐릭=미소피아 계정=shs544 IP=218.148.171.173
2016-10-01 08:43:55	접속 캐릭=뭉치	계정=rhal11	IP=218.148.171.173
2016-10-01 08:44:44	종료 캐릭=뭉치 계정=rhal11 IP=218.148.171.173
2016-10-01 08:44:46	접속 캐릭=마루	계정=rhal11	IP=218.148.171.173
2016-10-01 08:46:12	종료 캐릭=마루 계정=rhal11 IP=218.148.171.173
2016-10-01 08:46:15	접속 캐릭=유나	계정=rhal11	IP=218.148.171.173
2016-10-01 08:47:02	종료 캐릭=유나 계정=rhal11 IP=218.148.171.173
2016-10-01 08:47:07	접속 캐릭=꼬꼬마	계정=rhal11	IP=218.148.171.173
2016-10-01 08:49:57	종료 캐릭=꼬꼬마 계정=rhal11 IP=218.148.171.173
2016-10-01 08:52:35	종료 캐릭=메티스 계정=xotqj11 IP=192.168.0.1
2016-10-01 08:53:13	접속 캐릭=메티스	계정=xotqj11	IP=192.168.0.1
2016-10-01 09:08:05	종료 캐릭=관우 계정=minwok2824 IP=1.242.212.205
2016-10-01 10:57:57	접속 캐릭=용기사	계정=wjsdlf	IP=121.147.218.65
2016-10-01 11:14:29	종료 캐릭=용기사 계정=wjsdlf IP=121.147.218.65
2016-10-01 11:14:31	접속 캐릭=용기사	계정=wjsdlf	IP=121.147.218.65
2016-10-01 12:06:23	접속 캐릭=꼬미	계정=kokoa1	IP=58.236.41.26
2016-10-01 19:38:07	접속 캐릭=메티스	계정=xotqj11	IP=192.168.0.1
2016-10-01 19:38:34	접속 캐릭=꼬요정	계정=kokoa1	IP=58.236.41.26
2016-10-01 19:44:06	종료 캐릭=꼬요정 계정=kokoa1 IP=58.236.41.26
2016-10-01 19:47:13	접속 캐릭=메티스	계정=xotqj11	IP=192.168.0.1
2016-10-01 19:55:25	접속 캐릭=메티스	계정=xotqj11	IP=192.168.0.1
2016-10-01 20:25:23	접속 캐릭=용기사	계정=wjsdlf	IP=121.147.218.65
2016-10-01 20:28:22	접속 캐릭=메티스	계정=xotqj11	IP=192.168.0.1
2016-10-01 20:29:06	접속 캐릭=용기사	계정=wjsdlf	IP=121.147.218.65
2016-10-01 20:37:32	접속 캐릭=꼬요정	계정=kokoa1	IP=58.236.41.26
2016-10-01 20:37:36	종료 캐릭=꼬요정 계정=kokoa1 IP=58.236.41.26
2016-10-01 20:38:30	접속 캐릭=소유	계정=hoan27	IP=61.40.201.60
2016-10-01 20:39:31	접속 캐릭=단결	계정=gha1402	IP=180.70.35.26
2016-10-01 20:41:36	접속 캐릭=꼬요정	계정=kokoa1	IP=58.236.41.26
2016-10-01 20:41:44	종료 캐릭=꼬요정 계정=kokoa1 IP=58.236.41.26
2016-10-01 20:42:18	접속 캐릭=꼬요정	계정=kokoa1	IP=58.236.41.26
2016-10-01 20:42:21	종료 캐릭=꼬요정 계정=kokoa1 IP=58.236.41.26
2016-10-01 20:43:15	접속 캐릭=경험치	계정=thsekaql123	IP=218.236.45.215
2016-10-01 20:43:15	종료 캐릭=경험치 계정=thsekaql123 IP=218.236.45.215
2016-10-01 20:44:23	접속 캐릭=꼬미	계정=kokoa1	IP=58.236.41.26
2016-10-01 20:44:24	종료 캐릭=꼬미 계정=kokoa1 IP=58.236.41.26
2016-10-01 20:45:10	접속 캐릭=경험치	계정=thsekaql123	IP=218.236.45.215
2016-10-01 20:45:12	종료 캐릭=경험치 계정=thsekaql123 IP=218.236.45.215
2016-10-01 20:47:38	접속 캐릭=꼬요정	계정=kokoa1	IP=58.236.41.26
2016-10-01 20:47:39	종료 캐릭=꼬요정 계정=kokoa1 IP=58.236.41.26
2016-10-01 20:48:05	접속 캐릭=파라	계정=thsekaql123	IP=218.236.45.215
2016-10-01 20:48:05	종료 캐릭=파라 계정=thsekaql123 IP=218.236.45.215
2016-10-01 20:49:25	접속 캐릭=관우	계정=minwok2824	IP=1.242.212.205
2016-10-01 20:49:48	접속 캐릭=군주	계정=wjsdlf1	IP=121.147.218.65
2016-10-01 20:50:09	접속 캐릭=미소피아	계정=shs544	IP=220.77.252.100
2016-10-01 20:51:02	종료 캐릭=군주 계정=wjsdlf1 IP=121.147.218.65
2016-10-01 20:51:05	접속 캐릭=파라	계정=thsekaql123	IP=218.236.45.215
2016-10-01 20:51:05	접속 캐릭=다크엘프	계정=wjsdlf1	IP=121.147.218.65
2016-10-01 20:51:09	접속 캐릭=꼬요정	계정=kokoa1	IP=58.236.41.26
2016-10-01 20:52:01	종료 캐릭=다크엘프 계정=wjsdlf1 IP=121.147.218.65
2016-10-01 20:52:35	종료 캐릭=꼬요정 계정=kokoa1 IP=58.236.41.26
2016-10-01 20:52:38	접속 캐릭=꼬미	계정=kokoa1	IP=58.236.41.26
2016-10-01 20:56:53	종료 캐릭=파라 계정=thsekaql123 IP=218.236.45.215
2016-10-01 20:56:55	접속 캐릭=경험치	계정=thsekaql123	IP=218.236.45.215
2016-10-01 20:58:10	종료 캐릭=용기사 계정=wjsdlf IP=121.147.218.65
2016-10-01 20:58:13	접속 캐릭=용기사	계정=wjsdlf	IP=121.147.218.65
2016-10-01 20:58:13	종료 캐릭=용기사 계정=wjsdlf IP=121.147.218.65
2016-10-01 20:59:33	접속 캐릭=용기사	계정=wjsdlf	IP=121.147.218.65
2016-10-01 21:02:07	종료 캐릭=꼬미 계정=kokoa1 IP=58.236.41.26
2016-10-01 21:02:22	접속 캐릭=마루	계정=rhal11	IP=58.236.41.26
2016-10-01 21:02:33	종료 캐릭=마루 계정=rhal11 IP=58.236.41.26
2016-10-01 21:02:35	접속 캐릭=유나	계정=rhal11	IP=58.236.41.26
2016-10-01 21:04:56	종료 캐릭=유나 계정=rhal11 IP=58.236.41.26
2016-10-01 21:04:59	접속 캐릭=마루	계정=rhal11	IP=58.236.41.26
2016-10-01 21:06:03	종료 캐릭=마루 계정=rhal11 IP=58.236.41.26
2016-10-01 21:06:18	접속 캐릭=꼬미	계정=kokoa1	IP=58.236.41.26
2016-10-01 21:15:52	종료 캐릭=경험치 계정=thsekaql123 IP=218.236.45.215
2016-10-01 21:16:00	접속 캐릭=파라	계정=thsekaql123	IP=218.236.45.215
2016-10-01 21:16:38	종료 캐릭=파라 계정=thsekaql123 IP=218.236.45.215
2016-10-01 21:16:40	접속 캐릭=경험치	계정=thsekaql123	IP=218.236.45.215
2016-10-01 21:24:12	종료 캐릭=꼬미 계정=kokoa1 IP=58.236.41.26
2016-10-01 21:24:14	접속 캐릭=꼬요정	계정=kokoa1	IP=58.236.41.26
2016-10-01 21:26:17	종료 캐릭=경험치 계정=thsekaql123 IP=218.236.45.215
2016-10-01 21:26:52	접속 캐릭=경험치	계정=thsekaql123	IP=218.236.45.215
2016-10-01 21:32:38	종료 캐릭=경험치 계정=thsekaql123 IP=218.236.45.215
2016-10-01 21:34:28	접속 캐릭=그러나	계정=thsekaql123	IP=218.236.45.215
2016-10-01 21:40:46	종료 캐릭=소유 계정=hoan27 IP=61.40.201.60
2016-10-01 21:51:43	종료 캐릭=미소피아 계정=shs544 IP=220.77.252.100
2016-10-01 21:52:35	접속 캐릭=낭만	계정=shs544	IP=220.77.252.100
2016-10-01 21:55:07	종료 캐릭=낭만 계정=shs544 IP=220.77.252.100
2016-10-01 21:55:32	접속 캐릭=야만	계정=shs544	IP=220.77.252.100
2016-10-01 21:59:08	종료 캐릭=야만 계정=shs544 IP=220.77.252.100
2016-10-01 21:59:10	접속 캐릭=미소피아	계정=shs544	IP=220.77.252.100
2016-10-01 22:06:58	종료 캐릭=미소피아 계정=shs544 IP=220.77.252.100
2016-10-01 22:07:03	접속 캐릭=야만	계정=shs544	IP=220.77.252.100
2016-10-01 22:09:31	종료 캐릭=꼬요정 계정=kokoa1 IP=58.236.41.26
2016-10-01 22:09:33	종료 캐릭=야만 계정=shs544 IP=220.77.252.100
2016-10-01 22:09:36	접속 캐릭=꼬요정	계정=kokoa1	IP=58.236.41.26
2016-10-01 22:09:38	종료 캐릭=꼬요정 계정=kokoa1 IP=58.236.41.26
2016-10-01 22:09:39	접속 캐릭=미소피아	계정=shs544	IP=220.77.252.100
2016-10-01 22:09:40	접속 캐릭=꼬미	계정=kokoa1	IP=58.236.41.26
2016-10-01 22:12:32	종료 캐릭=꼬미 계정=kokoa1 IP=58.236.41.26
2016-10-01 22:12:42	종료 캐릭=용기사 계정=wjsdlf IP=121.147.218.65
2016-10-01 22:13:25	접속 캐릭=용기사	계정=wjsdlf	IP=121.147.218.65
2016-10-01 22:16:51	접속 캐릭=꼬미	계정=kokoa1	IP=58.236.41.26
2016-10-01 22:27:53	종료 캐릭=단결 계정=gha1402 IP=180.70.35.26
2016-10-01 22:27:55	접속 캐릭=단결	계정=gha1402	IP=180.70.35.26
2016-10-01 23:10:25	종료 캐릭=단결 계정=gha1402 IP=180.70.35.26
2016-10-01 23:11:46	종료 캐릭=꼬미 계정=kokoa1 IP=58.236.41.26
